%!PS-Adobe-3.0 EPSF-3.0
%%Creator: (MATLAB, The Mathworks, Inc. Version 9.0.0.341360 \(R2016a\). Operating System: Mac OS X)
%%Title: /Users/duan/Documents/presentation/20190628_research_discussion/figures/boxPlot.eps
%%CreationDate: 2019-06-20T14:44:25
%%Pages: (atend)
%%BoundingBox: 0 0 694 499
%%LanguageLevel: 3
%%EndComments
%%BeginProlog
%%BeginResource: procset (Apache XML Graphics Std ProcSet) 1.2 0
%%Version: 1.2 0
%%Copyright: (Copyright 2001-2003,2010 The Apache Software Foundation. License terms: http://www.apache.org/licenses/LICENSE-2.0)
/bd{bind def}bind def
/ld{load def}bd
/GR/grestore ld
/M/moveto ld
/LJ/setlinejoin ld
/C/curveto ld
/f/fill ld
/LW/setlinewidth ld
/GC/setgray ld
/t/show ld
/N/newpath ld
/CT/concat ld
/cp/closepath ld
/S/stroke ld
/L/lineto ld
/CC/setcmykcolor ld
/A/ashow ld
/GS/gsave ld
/RC/setrgbcolor ld
/RM/rmoveto ld
/ML/setmiterlimit ld
/re {4 2 roll M
1 index 0 rlineto
0 exch rlineto
neg 0 rlineto
cp } bd
/_ctm matrix def
/_tm matrix def
/BT { _ctm currentmatrix pop matrix _tm copy pop 0 0 moveto } bd
/ET { _ctm setmatrix } bd
/iTm { _ctm setmatrix _tm concat } bd
/Tm { _tm astore pop iTm 0 0 moveto } bd
/ux 0.0 def
/uy 0.0 def
/F {
  /Tp exch def
  /Tf exch def
  Tf findfont Tp scalefont setfont
  /cf Tf def  /cs Tp def
} bd
/ULS {currentpoint /uy exch def /ux exch def} bd
/ULE {
  /Tcx currentpoint pop def
  gsave
  newpath
  cf findfont cs scalefont dup
  /FontMatrix get 0 get /Ts exch def /FontInfo get dup
  /UnderlinePosition get Ts mul /To exch def
  /UnderlineThickness get Ts mul /Tt exch def
  ux uy To add moveto  Tcx uy To add lineto
  Tt setlinewidth stroke
  grestore
} bd
/OLE {
  /Tcx currentpoint pop def
  gsave
  newpath
  cf findfont cs scalefont dup
  /FontMatrix get 0 get /Ts exch def /FontInfo get dup
  /UnderlinePosition get Ts mul /To exch def
  /UnderlineThickness get Ts mul /Tt exch def
  ux uy To add cs add moveto Tcx uy To add cs add lineto
  Tt setlinewidth stroke
  grestore
} bd
/SOE {
  /Tcx currentpoint pop def
  gsave
  newpath
  cf findfont cs scalefont dup
  /FontMatrix get 0 get /Ts exch def /FontInfo get dup
  /UnderlinePosition get Ts mul /To exch def
  /UnderlineThickness get Ts mul /Tt exch def
  ux uy To add cs 10 mul 26 idiv add moveto Tcx uy To add cs 10 mul 26 idiv add lineto
  Tt setlinewidth stroke
  grestore
} bd
/QT {
/Y22 exch store
/X22 exch store
/Y21 exch store
/X21 exch store
currentpoint
/Y21 load 2 mul add 3 div exch
/X21 load 2 mul add 3 div exch
/X21 load 2 mul /X22 load add 3 div
/Y21 load 2 mul /Y22 load add 3 div
/X22 load /Y22 load curveto
} bd
/SSPD {
dup length /d exch dict def
{
/v exch def
/k exch def
currentpagedevice k known {
/cpdv currentpagedevice k get def
v cpdv ne {
/upd false def
/nullv v type /nulltype eq def
/nullcpdv cpdv type /nulltype eq def
nullv nullcpdv or
{
/upd true def
} {
/sametype v type cpdv type eq def
sametype {
v type /arraytype eq {
/vlen v length def
/cpdvlen cpdv length def
vlen cpdvlen eq {
0 1 vlen 1 sub {
/i exch def
/obj v i get def
/cpdobj cpdv i get def
obj cpdobj ne {
/upd true def
exit
} if
} for
} {
/upd true def
} ifelse
} {
v type /dicttype eq {
v {
/dv exch def
/dk exch def
/cpddv cpdv dk get def
dv cpddv ne {
/upd true def
exit
} if
} forall
} {
/upd true def
} ifelse
} ifelse
} if
} ifelse
upd true eq {
d k v put
} if
} if
} if
} forall
d length 0 gt {
d setpagedevice
} if
} bd
%%EndResource
%%BeginResource: procset (Apache XML Graphics EPS ProcSet) 1.0 0
%%Version: 1.0 0
%%Copyright: (Copyright 2002-2003 The Apache Software Foundation. License terms: http://www.apache.org/licenses/LICENSE-2.0)
/BeginEPSF { %def
/b4_Inc_state save def         % Save state for cleanup
/dict_count countdictstack def % Count objects on dict stack
/op_count count 1 sub def      % Count objects on operand stack
userdict begin                 % Push userdict on dict stack
/showpage { } def              % Redefine showpage, { } = null proc
0 setgray 0 setlinecap         % Prepare graphics state
1 setlinewidth 0 setlinejoin
10 setmiterlimit [ ] 0 setdash newpath
/languagelevel where           % If level not equal to 1 then
{pop languagelevel             % set strokeadjust and
1 ne                           % overprint to their defaults.
{false setstrokeadjust false setoverprint
} if
} if
} bd
/EndEPSF { %def
count op_count sub {pop} repeat            % Clean up stacks
countdictstack dict_count sub {end} repeat
b4_Inc_state restore
} bd
%%EndResource
%FOPBeginFontDict
%%IncludeResource: font Courier-Bold
%%IncludeResource: font Helvetica
%%IncludeResource: font Courier-BoldOblique
%%IncludeResource: font Courier-Oblique
%%IncludeResource: font Times-Roman
%%IncludeResource: font Helvetica-BoldOblique
%%IncludeResource: font Helvetica-Bold
%%IncludeResource: font Helvetica-Oblique
%%IncludeResource: font Times-BoldItalic
%%IncludeResource: font Courier
%%IncludeResource: font Times-Italic
%%IncludeResource: font Times-Bold
%%IncludeResource: font Symbol
%%IncludeResource: font ZapfDingbats
%FOPEndFontDict
%%BeginResource: encoding WinAnsiEncoding
/WinAnsiEncoding [
/.notdef /.notdef /.notdef /.notdef /.notdef
/.notdef /.notdef /.notdef /.notdef /.notdef
/.notdef /.notdef /.notdef /.notdef /.notdef
/.notdef /.notdef /.notdef /.notdef /.notdef
/.notdef /.notdef /.notdef /.notdef /.notdef
/.notdef /.notdef /.notdef /.notdef /.notdef
/.notdef /.notdef /space /exclam /quotedbl
/numbersign /dollar /percent /ampersand /quotesingle
/parenleft /parenright /asterisk /plus /comma
/hyphen /period /slash /zero /one
/two /three /four /five /six
/seven /eight /nine /colon /semicolon
/less /equal /greater /question /at
/A /B /C /D /E
/F /G /H /I /J
/K /L /M /N /O
/P /Q /R /S /T
/U /V /W /X /Y
/Z /bracketleft /backslash /bracketright /asciicircum
/underscore /quoteleft /a /b /c
/d /e /f /g /h
/i /j /k /l /m
/n /o /p /q /r
/s /t /u /v /w
/x /y /z /braceleft /bar
/braceright /asciitilde /bullet /Euro /bullet
/quotesinglbase /florin /quotedblbase /ellipsis /dagger
/daggerdbl /circumflex /perthousand /Scaron /guilsinglleft
/OE /bullet /Zcaron /bullet /bullet
/quoteleft /quoteright /quotedblleft /quotedblright /bullet
/endash /emdash /asciitilde /trademark /scaron
/guilsinglright /oe /bullet /zcaron /Ydieresis
/space /exclamdown /cent /sterling /currency
/yen /brokenbar /section /dieresis /copyright
/ordfeminine /guillemotleft /logicalnot /sfthyphen /registered
/macron /degree /plusminus /twosuperior /threesuperior
/acute /mu /paragraph /middot /cedilla
/onesuperior /ordmasculine /guillemotright /onequarter /onehalf
/threequarters /questiondown /Agrave /Aacute /Acircumflex
/Atilde /Adieresis /Aring /AE /Ccedilla
/Egrave /Eacute /Ecircumflex /Edieresis /Igrave
/Iacute /Icircumflex /Idieresis /Eth /Ntilde
/Ograve /Oacute /Ocircumflex /Otilde /Odieresis
/multiply /Oslash /Ugrave /Uacute /Ucircumflex
/Udieresis /Yacute /Thorn /germandbls /agrave
/aacute /acircumflex /atilde /adieresis /aring
/ae /ccedilla /egrave /eacute /ecircumflex
/edieresis /igrave /iacute /icircumflex /idieresis
/eth /ntilde /ograve /oacute /ocircumflex
/otilde /odieresis /divide /oslash /ugrave
/uacute /ucircumflex /udieresis /yacute /thorn
/ydieresis
] def
%%EndResource
%FOPBeginFontReencode
/Courier-Bold findfont
dup length dict begin
  {1 index /FID ne {def} {pop pop} ifelse} forall
  /Encoding WinAnsiEncoding def
  currentdict
end
/Courier-Bold exch definefont pop
/Helvetica findfont
dup length dict begin
  {1 index /FID ne {def} {pop pop} ifelse} forall
  /Encoding WinAnsiEncoding def
  currentdict
end
/Helvetica exch definefont pop
/Courier-BoldOblique findfont
dup length dict begin
  {1 index /FID ne {def} {pop pop} ifelse} forall
  /Encoding WinAnsiEncoding def
  currentdict
end
/Courier-BoldOblique exch definefont pop
/Courier-Oblique findfont
dup length dict begin
  {1 index /FID ne {def} {pop pop} ifelse} forall
  /Encoding WinAnsiEncoding def
  currentdict
end
/Courier-Oblique exch definefont pop
/Times-Roman findfont
dup length dict begin
  {1 index /FID ne {def} {pop pop} ifelse} forall
  /Encoding WinAnsiEncoding def
  currentdict
end
/Times-Roman exch definefont pop
/Helvetica-BoldOblique findfont
dup length dict begin
  {1 index /FID ne {def} {pop pop} ifelse} forall
  /Encoding WinAnsiEncoding def
  currentdict
end
/Helvetica-BoldOblique exch definefont pop
/Helvetica-Bold findfont
dup length dict begin
  {1 index /FID ne {def} {pop pop} ifelse} forall
  /Encoding WinAnsiEncoding def
  currentdict
end
/Helvetica-Bold exch definefont pop
/Helvetica-Oblique findfont
dup length dict begin
  {1 index /FID ne {def} {pop pop} ifelse} forall
  /Encoding WinAnsiEncoding def
  currentdict
end
/Helvetica-Oblique exch definefont pop
/Times-BoldItalic findfont
dup length dict begin
  {1 index /FID ne {def} {pop pop} ifelse} forall
  /Encoding WinAnsiEncoding def
  currentdict
end
/Times-BoldItalic exch definefont pop
/Courier findfont
dup length dict begin
  {1 index /FID ne {def} {pop pop} ifelse} forall
  /Encoding WinAnsiEncoding def
  currentdict
end
/Courier exch definefont pop
/Times-Italic findfont
dup length dict begin
  {1 index /FID ne {def} {pop pop} ifelse} forall
  /Encoding WinAnsiEncoding def
  currentdict
end
/Times-Italic exch definefont pop
/Times-Bold findfont
dup length dict begin
  {1 index /FID ne {def} {pop pop} ifelse} forall
  /Encoding WinAnsiEncoding def
  currentdict
end
/Times-Bold exch definefont pop
%FOPEndFontReencode
%%EndProlog
%%Page: 1 1
%%PageBoundingBox: 0 0 694 499
%%BeginPageSetup
[1 0 0 -1 0 499] CT
%%EndPageSetup
GS
1 GC
N
0 0 694 499 re
f
GR
GS
1 GC
N
0 0 694 499 re
f
GR
GS
1 GC
N
90 353.5 M
628 353.5 L
628 37.5 L
90 37.5 L
cp
f
GR
GS
0.149 GC
2 setlinecap
1 LJ
0.5 LW
N
90 353.5 M
628 353.5 L
S
GR
GS
0.149 GC
2 setlinecap
1 LJ
0.5 LW
N
90 37.5 M
628 37.5 L
S
GR
GS
0.149 GC
2 setlinecap
1 LJ
0.5 LW
N
128.429 353.5 M
128.429 348.12 L
S
GR
GS
0.149 GC
2 setlinecap
1 LJ
0.5 LW
N
205.286 353.5 M
205.286 348.12 L
S
GR
GS
0.149 GC
2 setlinecap
1 LJ
0.5 LW
N
282.143 353.5 M
282.143 348.12 L
S
GR
GS
0.149 GC
2 setlinecap
1 LJ
0.5 LW
N
359 353.5 M
359 348.12 L
S
GR
GS
0.149 GC
2 setlinecap
1 LJ
0.5 LW
N
435.857 353.5 M
435.857 348.12 L
S
GR
GS
0.149 GC
2 setlinecap
1 LJ
0.5 LW
N
512.714 353.5 M
512.714 348.12 L
S
GR
GS
0.149 GC
2 setlinecap
1 LJ
0.5 LW
N
589.571 353.5 M
589.571 348.12 L
S
GR
GS
0.149 GC
2 setlinecap
1 LJ
0.5 LW
N
128.429 37.5 M
128.429 42.88 L
S
GR
GS
0.149 GC
2 setlinecap
1 LJ
0.5 LW
N
205.286 37.5 M
205.286 42.88 L
S
GR
GS
0.149 GC
2 setlinecap
1 LJ
0.5 LW
N
282.143 37.5 M
282.143 42.88 L
S
GR
GS
0.149 GC
2 setlinecap
1 LJ
0.5 LW
N
359 37.5 M
359 42.88 L
S
GR
GS
0.149 GC
2 setlinecap
1 LJ
0.5 LW
N
435.857 37.5 M
435.857 42.88 L
S
GR
GS
0.149 GC
2 setlinecap
1 LJ
0.5 LW
N
512.714 37.5 M
512.714 42.88 L
S
GR
GS
0.149 GC
2 setlinecap
1 LJ
0.5 LW
N
589.571 37.5 M
589.571 42.88 L
S
GR
GS
[0.70711 -0.70711 0.70711 0.70711 128.42857 359.5] CT
0.149 GC
/Helvetica 20 F
GS
[1 0 0 1 0 0] CT
-174 20 moveto 
1 -1 scale
(WoF2F&Colocation) t 
GR
GR
GS
[0.70711 -0.70711 0.70711 0.70711 205.28572 359.5] CT
0.149 GC
/Helvetica 20 F
GS
[1 0 0 1 0 0] CT
-127 20 moveto 
1 -1 scale
(WoColocation) t 
GR
GR
GS
[0.70711 -0.70711 0.70711 0.70711 282.14285 359.5] CT
0.149 GC
/Helvetica 20 F
GS
[1 0 0 1 0 0] CT
-65 20 moveto 
1 -1 scale
(WoF2F) t 
GR
GR
GS
[0.70711 -0.70711 0.70711 0.70711 359 359.5] CT
0.149 GC
/Helvetica 20 F
GS
[1 0 0 1 0 0] CT
-159 20 moveto 
1 -1 scale
(WoWhom&Where) t 
GR
GR
GS
[0.70711 -0.70711 0.70711 0.70711 435.85715 359.5] CT
0.149 GC
/Helvetica 20 F
GS
[1 0 0 1 0 0] CT
-89 20 moveto 
1 -1 scale
(WoWhom) t 
GR
GR
GS
[0.70711 -0.70711 0.70711 0.70711 512.71429 359.5] CT
0.149 GC
/Helvetica 20 F
GS
[1 0 0 1 0 0] CT
-88 20 moveto 
1 -1 scale
(WoWhere) t 
GR
GR
GS
[0.70711 -0.70711 0.70711 0.70711 589.57141 359.5] CT
0.149 GC
/Helvetica 20 F
GS
[1 0 0 1 0 0] CT
-88 20 moveto 
1 -1 scale
(Proposed) t 
GR
GR
GS
0.149 GC
2 setlinecap
1 LJ
0.5 LW
N
90 353.5 M
90 37.5 L
S
GR
GS
0.149 GC
2 setlinecap
1 LJ
0.5 LW
N
628 353.5 M
628 37.5 L
S
GR
GS
0.149 GC
2 setlinecap
1 LJ
0.5 LW
N
90 328.389 M
95.38 328.389 L
S
GR
GS
0.149 GC
2 setlinecap
1 LJ
0.5 LW
N
90 279.16 M
95.38 279.16 L
S
GR
GS
0.149 GC
2 setlinecap
1 LJ
0.5 LW
N
90 229.93 M
95.38 229.93 L
S
GR
GS
0.149 GC
2 setlinecap
1 LJ
0.5 LW
N
90 180.7 M
95.38 180.7 L
S
GR
GS
0.149 GC
2 setlinecap
1 LJ
0.5 LW
N
90 131.47 M
95.38 131.47 L
S
GR
GS
0.149 GC
2 setlinecap
1 LJ
0.5 LW
N
90 82.24 M
95.38 82.24 L
S
GR
GS
0.149 GC
2 setlinecap
1 LJ
0.5 LW
N
628 328.389 M
622.62 328.389 L
S
GR
GS
0.149 GC
2 setlinecap
1 LJ
0.5 LW
N
628 279.16 M
622.62 279.16 L
S
GR
GS
0.149 GC
2 setlinecap
1 LJ
0.5 LW
N
628 229.93 M
622.62 229.93 L
S
GR
GS
0.149 GC
2 setlinecap
1 LJ
0.5 LW
N
628 180.7 M
622.62 180.7 L
S
GR
GS
0.149 GC
2 setlinecap
1 LJ
0.5 LW
N
628 131.47 M
622.62 131.47 L
S
GR
GS
0.149 GC
2 setlinecap
1 LJ
0.5 LW
N
628 82.24 M
622.62 82.24 L
S
GR
GS
[1 0 0 1 84 328.38947] CT
0.149 GC
/Helvetica 20 F
GS
[1 0 0 1 0 0] CT
-12 7.5 moveto 
1 -1 scale
(0) t 
GR
GR
GS
[1 0 0 1 84 279.15952] CT
0.149 GC
/Helvetica 20 F
GS
[1 0 0 1 0 0] CT
-12 7.5 moveto 
1 -1 scale
(2) t 
GR
GR
GS
[1 0 0 1 84 229.92953] CT
0.149 GC
/Helvetica 20 F
GS
[1 0 0 1 0 0] CT
-12 7.5 moveto 
1 -1 scale
(4) t 
GR
GR
GS
[1 0 0 1 84 180.69958] CT
0.149 GC
/Helvetica 20 F
GS
[1 0 0 1 0 0] CT
-12 7.5 moveto 
1 -1 scale
(6) t 
GR
GR
GS
[1 0 0 1 84 131.46962] CT
0.149 GC
/Helvetica 20 F
GS
[1 0 0 1 0 0] CT
-12 7.5 moveto 
1 -1 scale
(8) t 
GR
GR
GS
[1 0 0 1 84 82.23965] CT
0.149 GC
/Helvetica 20 F
GS
[1 0 0 1 0 0] CT
-23 7.5 moveto 
1 -1 scale
(10) t 
GR
GR
GS
[0 -1 1 0 58.5 195.49986] CT
0.149 GC
/Helvetica 22 F
GS
[1 0 0 1 0 0] CT
-23.5 -5 moveto 
1 -1 scale
(MAE) t 
GR
GR
GS
[10 6] 0 setdash
2 LJ
0.5 LW
N
128.429 238.96 M
128.429 157.33 L
S
GR
GS
[10 6] 0 setdash
2 LJ
0.5 LW
N
205.286 241.466 M
205.286 185.504 L
S
GR
GS
[10 6] 0 setdash
2 LJ
0.5 LW
N
282.143 213.251 M
282.143 80.046 L
S
GR
GS
[10 6] 0 setdash
2 LJ
0.5 LW
N
359 240.395 M
359 196.246 L
S
GR
GS
[10 6] 0 setdash
2 LJ
0.5 LW
N
435.857 216.18 M
435.857 107.74 L
S
GR
GS
[10 6] 0 setdash
2 LJ
0.5 LW
N
512.714 259.69 M
512.714 245.803 L
S
GR
GS
[10 6] 0 setdash
2 LJ
0.5 LW
N
589.571 274.311 M
589.571 269.718 L
S
GR
GS
[10 6] 0 setdash
2 LJ
0.5 LW
N
128.429 327.454 M
128.429 320.894 L
S
GR
GS
[10 6] 0 setdash
2 LJ
0.5 LW
N
205.286 327.673 M
205.286 314.056 L
S
GR
GS
[10 6] 0 setdash
2 LJ
0.5 LW
N
282.143 324.98 M
282.143 318.133 L
S
GR
GS
[10 6] 0 setdash
2 LJ
0.5 LW
N
359 327.524 M
359 312.817 L
S
GR
GS
[10 6] 0 setdash
2 LJ
0.5 LW
N
435.857 323.88 M
435.857 291.917 L
S
GR
GS
[10 6] 0 setdash
2 LJ
0.5 LW
N
512.714 317.228 M
512.714 286.25 L
S
GR
GS
[10 6] 0 setdash
2 LJ
0.5 LW
N
589.571 323.546 M
589.571 315.091 L
S
GR
GS
1 LJ
0.5 LW
N
118.821 157.33 M
138.036 157.33 L
S
GR
GS
1 LJ
0.5 LW
N
195.679 185.504 M
214.893 185.504 L
S
GR
GS
1 LJ
0.5 LW
N
272.536 80.046 M
291.75 80.046 L
S
GR
GS
1 LJ
0.5 LW
N
349.393 196.246 M
368.607 196.246 L
S
GR
GS
1 LJ
0.5 LW
N
426.25 107.74 M
445.464 107.74 L
S
GR
GS
1 LJ
0.5 LW
N
503.107 245.803 M
522.321 245.803 L
S
GR
GS
1 LJ
0.5 LW
N
579.964 269.718 M
599.179 269.718 L
S
GR
GS
1 LJ
0.5 LW
N
118.821 327.454 M
138.036 327.454 L
S
GR
GS
1 LJ
0.5 LW
N
195.679 327.673 M
214.893 327.673 L
S
GR
GS
1 LJ
0.5 LW
N
272.536 324.98 M
291.75 324.98 L
S
GR
GS
1 LJ
0.5 LW
N
349.393 327.524 M
368.607 327.524 L
S
GR
GS
1 LJ
0.5 LW
N
426.25 323.88 M
445.464 323.88 L
S
GR
GS
1 LJ
0.5 LW
N
503.107 317.228 M
522.321 317.228 L
S
GR
GS
1 LJ
0.5 LW
N
579.964 323.546 M
599.179 323.546 L
S
GR
GS
0 0 1 RC
1 LJ
0.5 LW
N
109.214 320.894 M
109.214 238.96 L
147.643 238.96 L
147.643 320.894 L
109.214 320.894 L
S
GR
GS
0 0 1 RC
1 LJ
0.5 LW
N
186.071 314.056 M
186.071 241.466 L
224.5 241.466 L
224.5 314.056 L
186.071 314.056 L
S
GR
GS
0 0 1 RC
1 LJ
0.5 LW
N
262.929 318.133 M
262.929 213.251 L
301.357 213.251 L
301.357 318.133 L
262.929 318.133 L
S
GR
GS
0 0 1 RC
1 LJ
0.5 LW
N
339.786 312.817 M
339.786 240.395 L
378.214 240.395 L
378.214 312.817 L
339.786 312.817 L
S
GR
GS
0 0 1 RC
1 LJ
0.5 LW
N
416.643 291.917 M
416.643 216.18 L
455.071 216.18 L
455.071 291.917 L
416.643 291.917 L
S
GR
GS
0 0 1 RC
1 LJ
0.5 LW
N
493.5 286.25 M
493.5 259.69 L
531.929 259.69 L
531.929 286.25 L
493.5 286.25 L
S
GR
GS
0 0 1 RC
1 LJ
0.5 LW
N
570.357 315.091 M
570.357 274.311 L
608.786 274.311 L
608.786 315.091 L
570.357 315.091 L
S
GR
GS
1 0 0 RC
1 LJ
0.5 LW
N
109.214 286.137 M
147.643 286.137 L
S
GR
GS
1 0 0 RC
1 LJ
0.5 LW
N
186.071 273.602 M
224.5 273.602 L
S
GR
GS
1 0 0 RC
1 LJ
0.5 LW
N
262.929 293.467 M
301.357 293.467 L
S
GR
GS
1 0 0 RC
1 LJ
0.5 LW
N
339.786 271.786 M
378.214 271.786 L
S
GR
GS
1 0 0 RC
1 LJ
0.5 LW
N
416.643 260.103 M
455.071 260.103 L
S
GR
GS
1 0 0 RC
1 LJ
0.5 LW
N
493.5 274.891 M
531.929 274.891 L
S
GR
GS
1 0 0 RC
1 LJ
0.5 LW
N
570.357 287.394 M
608.786 287.394 L
S
GR
GS
0 0 1 RC
1 LJ
N
125 258.5 M
132 258.5 L
S
GR
GS
0 0 1 RC
1 LJ
N
128.5 262 M
128.5 255 L
S
GR
GS
0 0 1 RC
1 LJ
N
126 261 M
131 256 L
S
GR
GS
0 0 1 RC
1 LJ
N
126 256 M
131 261 L
S
GR
GS
0 0 1 RC
1 LJ
N
202 262.5 M
209 262.5 L
S
GR
GS
0 0 1 RC
1 LJ
N
205.5 266 M
205.5 259 L
S
GR
GS
0 0 1 RC
1 LJ
N
203 265 M
208 260 L
S
GR
GS
0 0 1 RC
1 LJ
N
203 260 M
208 265 L
S
GR
GS
0 0 1 RC
1 LJ
N
279 256.5 M
286 256.5 L
S
GR
GS
0 0 1 RC
1 LJ
N
282.5 260 M
282.5 253 L
S
GR
GS
0 0 1 RC
1 LJ
N
280 259 M
285 254 L
S
GR
GS
0 0 1 RC
1 LJ
N
280 254 M
285 259 L
S
GR
GS
0 0 1 RC
1 LJ
N
356 264.5 M
363 264.5 L
S
GR
GS
0 0 1 RC
1 LJ
N
359.5 268 M
359.5 261 L
S
GR
GS
0 0 1 RC
1 LJ
N
357 267 M
362 262 L
S
GR
GS
0 0 1 RC
1 LJ
N
357 262 M
362 267 L
S
GR
GS
0 0 1 RC
1 LJ
N
432 246.5 M
439 246.5 L
S
GR
GS
0 0 1 RC
1 LJ
N
435.5 250 M
435.5 243 L
S
GR
GS
0 0 1 RC
1 LJ
N
433 249 M
438 244 L
S
GR
GS
0 0 1 RC
1 LJ
N
433 244 M
438 249 L
S
GR
GS
0 0 1 RC
1 LJ
N
509 275.5 M
516 275.5 L
S
GR
GS
0 0 1 RC
1 LJ
N
512.5 279 M
512.5 272 L
S
GR
GS
0 0 1 RC
1 LJ
N
510 278 M
515 273 L
S
GR
GS
0 0 1 RC
1 LJ
N
510 273 M
515 278 L
S
GR
GS
0 0 1 RC
1 LJ
N
586 282.5 M
593 282.5 L
S
GR
GS
0 0 1 RC
1 LJ
N
589.5 286 M
589.5 279 L
S
GR
GS
0 0 1 RC
1 LJ
N
587 285 M
592 280 L
S
GR
GS
0 0 1 RC
1 LJ
N
587 280 M
592 285 L
S
GR
%%Trailer
%%Pages: 1
%%EOF
