%!PS-Adobe-3.0 EPSF-3.0
%%Creator: (MATLAB, The Mathworks, Inc. Version 9.0.0.341360 \(R2016a\). Operating System: Mac OS X)
%%Title: /Volumes/fs/temporary/2018/201902/20190215-duan-to-simosaka-m2midterm201902/figures/locationIndex.eps
%%CreationDate: 2019-02-15T18:34:22
%%Pages: (atend)
%%BoundingBox: 0 0 560 420
%%LanguageLevel: 3
%%EndComments
%%BeginProlog
%%BeginResource: procset (Apache XML Graphics Std ProcSet) 1.2 0
%%Version: 1.2 0
%%Copyright: (Copyright 2001-2003,2010 The Apache Software Foundation. License terms: http://www.apache.org/licenses/LICENSE-2.0)
/bd{bind def}bind def
/ld{load def}bd
/GR/grestore ld
/M/moveto ld
/LJ/setlinejoin ld
/C/curveto ld
/f/fill ld
/LW/setlinewidth ld
/GC/setgray ld
/t/show ld
/N/newpath ld
/CT/concat ld
/cp/closepath ld
/S/stroke ld
/L/lineto ld
/CC/setcmykcolor ld
/A/ashow ld
/GS/gsave ld
/RC/setrgbcolor ld
/RM/rmoveto ld
/ML/setmiterlimit ld
/re {4 2 roll M
1 index 0 rlineto
0 exch rlineto
neg 0 rlineto
cp } bd
/_ctm matrix def
/_tm matrix def
/BT { _ctm currentmatrix pop matrix _tm copy pop 0 0 moveto } bd
/ET { _ctm setmatrix } bd
/iTm { _ctm setmatrix _tm concat } bd
/Tm { _tm astore pop iTm 0 0 moveto } bd
/ux 0.0 def
/uy 0.0 def
/F {
  /Tp exch def
  /Tf exch def
  Tf findfont Tp scalefont setfont
  /cf Tf def  /cs Tp def
} bd
/ULS {currentpoint /uy exch def /ux exch def} bd
/ULE {
  /Tcx currentpoint pop def
  gsave
  newpath
  cf findfont cs scalefont dup
  /FontMatrix get 0 get /Ts exch def /FontInfo get dup
  /UnderlinePosition get Ts mul /To exch def
  /UnderlineThickness get Ts mul /Tt exch def
  ux uy To add moveto  Tcx uy To add lineto
  Tt setlinewidth stroke
  grestore
} bd
/OLE {
  /Tcx currentpoint pop def
  gsave
  newpath
  cf findfont cs scalefont dup
  /FontMatrix get 0 get /Ts exch def /FontInfo get dup
  /UnderlinePosition get Ts mul /To exch def
  /UnderlineThickness get Ts mul /Tt exch def
  ux uy To add cs add moveto Tcx uy To add cs add lineto
  Tt setlinewidth stroke
  grestore
} bd
/SOE {
  /Tcx currentpoint pop def
  gsave
  newpath
  cf findfont cs scalefont dup
  /FontMatrix get 0 get /Ts exch def /FontInfo get dup
  /UnderlinePosition get Ts mul /To exch def
  /UnderlineThickness get Ts mul /Tt exch def
  ux uy To add cs 10 mul 26 idiv add moveto Tcx uy To add cs 10 mul 26 idiv add lineto
  Tt setlinewidth stroke
  grestore
} bd
/QT {
/Y22 exch store
/X22 exch store
/Y21 exch store
/X21 exch store
currentpoint
/Y21 load 2 mul add 3 div exch
/X21 load 2 mul add 3 div exch
/X21 load 2 mul /X22 load add 3 div
/Y21 load 2 mul /Y22 load add 3 div
/X22 load /Y22 load curveto
} bd
/SSPD {
dup length /d exch dict def
{
/v exch def
/k exch def
currentpagedevice k known {
/cpdv currentpagedevice k get def
v cpdv ne {
/upd false def
/nullv v type /nulltype eq def
/nullcpdv cpdv type /nulltype eq def
nullv nullcpdv or
{
/upd true def
} {
/sametype v type cpdv type eq def
sametype {
v type /arraytype eq {
/vlen v length def
/cpdvlen cpdv length def
vlen cpdvlen eq {
0 1 vlen 1 sub {
/i exch def
/obj v i get def
/cpdobj cpdv i get def
obj cpdobj ne {
/upd true def
exit
} if
} for
} {
/upd true def
} ifelse
} {
v type /dicttype eq {
v {
/dv exch def
/dk exch def
/cpddv cpdv dk get def
dv cpddv ne {
/upd true def
exit
} if
} forall
} {
/upd true def
} ifelse
} ifelse
} if
} ifelse
upd true eq {
d k v put
} if
} if
} if
} forall
d length 0 gt {
d setpagedevice
} if
} bd
%%EndResource
%%BeginResource: procset (Apache XML Graphics EPS ProcSet) 1.0 0
%%Version: 1.0 0
%%Copyright: (Copyright 2002-2003 The Apache Software Foundation. License terms: http://www.apache.org/licenses/LICENSE-2.0)
/BeginEPSF { %def
/b4_Inc_state save def         % Save state for cleanup
/dict_count countdictstack def % Count objects on dict stack
/op_count count 1 sub def      % Count objects on operand stack
userdict begin                 % Push userdict on dict stack
/showpage { } def              % Redefine showpage, { } = null proc
0 setgray 0 setlinecap         % Prepare graphics state
1 setlinewidth 0 setlinejoin
10 setmiterlimit [ ] 0 setdash newpath
/languagelevel where           % If level not equal to 1 then
{pop languagelevel             % set strokeadjust and
1 ne                           % overprint to their defaults.
{false setstrokeadjust false setoverprint
} if
} if
} bd
/EndEPSF { %def
count op_count sub {pop} repeat            % Clean up stacks
countdictstack dict_count sub {end} repeat
b4_Inc_state restore
} bd
%%EndResource
%FOPBeginFontDict
%%IncludeResource: font Courier-Bold
%%IncludeResource: font Helvetica
%%IncludeResource: font Courier-BoldOblique
%%IncludeResource: font Courier-Oblique
%%IncludeResource: font Times-Roman
%%IncludeResource: font Helvetica-BoldOblique
%%IncludeResource: font Helvetica-Bold
%%IncludeResource: font Helvetica-Oblique
%%IncludeResource: font Times-BoldItalic
%%IncludeResource: font Courier
%%IncludeResource: font Times-Italic
%%IncludeResource: font Times-Bold
%%IncludeResource: font Symbol
%%IncludeResource: font ZapfDingbats
%FOPEndFontDict
%%BeginResource: encoding WinAnsiEncoding
/WinAnsiEncoding [
/.notdef /.notdef /.notdef /.notdef /.notdef
/.notdef /.notdef /.notdef /.notdef /.notdef
/.notdef /.notdef /.notdef /.notdef /.notdef
/.notdef /.notdef /.notdef /.notdef /.notdef
/.notdef /.notdef /.notdef /.notdef /.notdef
/.notdef /.notdef /.notdef /.notdef /.notdef
/.notdef /.notdef /space /exclam /quotedbl
/numbersign /dollar /percent /ampersand /quotesingle
/parenleft /parenright /asterisk /plus /comma
/hyphen /period /slash /zero /one
/two /three /four /five /six
/seven /eight /nine /colon /semicolon
/less /equal /greater /question /at
/A /B /C /D /E
/F /G /H /I /J
/K /L /M /N /O
/P /Q /R /S /T
/U /V /W /X /Y
/Z /bracketleft /backslash /bracketright /asciicircum
/underscore /quoteleft /a /b /c
/d /e /f /g /h
/i /j /k /l /m
/n /o /p /q /r
/s /t /u /v /w
/x /y /z /braceleft /bar
/braceright /asciitilde /bullet /Euro /bullet
/quotesinglbase /florin /quotedblbase /ellipsis /dagger
/daggerdbl /circumflex /perthousand /Scaron /guilsinglleft
/OE /bullet /Zcaron /bullet /bullet
/quoteleft /quoteright /quotedblleft /quotedblright /bullet
/endash /emdash /asciitilde /trademark /scaron
/guilsinglright /oe /bullet /zcaron /Ydieresis
/space /exclamdown /cent /sterling /currency
/yen /brokenbar /section /dieresis /copyright
/ordfeminine /guillemotleft /logicalnot /sfthyphen /registered
/macron /degree /plusminus /twosuperior /threesuperior
/acute /mu /paragraph /middot /cedilla
/onesuperior /ordmasculine /guillemotright /onequarter /onehalf
/threequarters /questiondown /Agrave /Aacute /Acircumflex
/Atilde /Adieresis /Aring /AE /Ccedilla
/Egrave /Eacute /Ecircumflex /Edieresis /Igrave
/Iacute /Icircumflex /Idieresis /Eth /Ntilde
/Ograve /Oacute /Ocircumflex /Otilde /Odieresis
/multiply /Oslash /Ugrave /Uacute /Ucircumflex
/Udieresis /Yacute /Thorn /germandbls /agrave
/aacute /acircumflex /atilde /adieresis /aring
/ae /ccedilla /egrave /eacute /ecircumflex
/edieresis /igrave /iacute /icircumflex /idieresis
/eth /ntilde /ograve /oacute /ocircumflex
/otilde /odieresis /divide /oslash /ugrave
/uacute /ucircumflex /udieresis /yacute /thorn
/ydieresis
] def
%%EndResource
%FOPBeginFontReencode
/Courier-Bold findfont
dup length dict begin
  {1 index /FID ne {def} {pop pop} ifelse} forall
  /Encoding WinAnsiEncoding def
  currentdict
end
/Courier-Bold exch definefont pop
/Helvetica findfont
dup length dict begin
  {1 index /FID ne {def} {pop pop} ifelse} forall
  /Encoding WinAnsiEncoding def
  currentdict
end
/Helvetica exch definefont pop
/Courier-BoldOblique findfont
dup length dict begin
  {1 index /FID ne {def} {pop pop} ifelse} forall
  /Encoding WinAnsiEncoding def
  currentdict
end
/Courier-BoldOblique exch definefont pop
/Courier-Oblique findfont
dup length dict begin
  {1 index /FID ne {def} {pop pop} ifelse} forall
  /Encoding WinAnsiEncoding def
  currentdict
end
/Courier-Oblique exch definefont pop
/Times-Roman findfont
dup length dict begin
  {1 index /FID ne {def} {pop pop} ifelse} forall
  /Encoding WinAnsiEncoding def
  currentdict
end
/Times-Roman exch definefont pop
/Helvetica-BoldOblique findfont
dup length dict begin
  {1 index /FID ne {def} {pop pop} ifelse} forall
  /Encoding WinAnsiEncoding def
  currentdict
end
/Helvetica-BoldOblique exch definefont pop
/Helvetica-Bold findfont
dup length dict begin
  {1 index /FID ne {def} {pop pop} ifelse} forall
  /Encoding WinAnsiEncoding def
  currentdict
end
/Helvetica-Bold exch definefont pop
/Helvetica-Oblique findfont
dup length dict begin
  {1 index /FID ne {def} {pop pop} ifelse} forall
  /Encoding WinAnsiEncoding def
  currentdict
end
/Helvetica-Oblique exch definefont pop
/Times-BoldItalic findfont
dup length dict begin
  {1 index /FID ne {def} {pop pop} ifelse} forall
  /Encoding WinAnsiEncoding def
  currentdict
end
/Times-BoldItalic exch definefont pop
/Courier findfont
dup length dict begin
  {1 index /FID ne {def} {pop pop} ifelse} forall
  /Encoding WinAnsiEncoding def
  currentdict
end
/Courier exch definefont pop
/Times-Italic findfont
dup length dict begin
  {1 index /FID ne {def} {pop pop} ifelse} forall
  /Encoding WinAnsiEncoding def
  currentdict
end
/Times-Italic exch definefont pop
/Times-Bold findfont
dup length dict begin
  {1 index /FID ne {def} {pop pop} ifelse} forall
  /Encoding WinAnsiEncoding def
  currentdict
end
/Times-Bold exch definefont pop
%FOPEndFontReencode
%%EndProlog
%%Page: 1 1
%%PageBoundingBox: 0 0 560 420
%%BeginPageSetup
[1 0 0 -1 0 420] CT
%%EndPageSetup
GS
1 GC
N
0 0 560 420 re
f
GR
GS
1 GC
N
0 0 560 420 re
f
GR
GS
1 GC
N
73 374 M
507 374 L
507 31.5 L
73 31.5 L
cp
f
GR
GS
0.149 GC
2 setlinecap
1 LJ
0.5 LW
N
73 374 M
507 374 L
S
GR
GS
0.149 GC
2 setlinecap
1 LJ
0.5 LW
N
73 374 M
73 369.66 L
S
GR
GS
0.149 GC
2 setlinecap
1 LJ
0.5 LW
N
116.4 374 M
116.4 369.66 L
S
GR
GS
0.149 GC
2 setlinecap
1 LJ
0.5 LW
N
159.8 374 M
159.8 369.66 L
S
GR
GS
0.149 GC
2 setlinecap
1 LJ
0.5 LW
N
203.2 374 M
203.2 369.66 L
S
GR
GS
0.149 GC
2 setlinecap
1 LJ
0.5 LW
N
246.6 374 M
246.6 369.66 L
S
GR
GS
0.149 GC
2 setlinecap
1 LJ
0.5 LW
N
290 374 M
290 369.66 L
S
GR
GS
0.149 GC
2 setlinecap
1 LJ
0.5 LW
N
333.4 374 M
333.4 369.66 L
S
GR
GS
0.149 GC
2 setlinecap
1 LJ
0.5 LW
N
376.8 374 M
376.8 369.66 L
S
GR
GS
0.149 GC
2 setlinecap
1 LJ
0.5 LW
N
420.2 374 M
420.2 369.66 L
S
GR
GS
0.149 GC
2 setlinecap
1 LJ
0.5 LW
N
463.6 374 M
463.6 369.66 L
S
GR
GS
0.149 GC
2 setlinecap
1 LJ
0.5 LW
N
507 374 M
507 369.66 L
S
GR
GS
[1 0 0 1 73 378] CT
0.149 GC
/Helvetica 10 F
GS
[1 0 0 1 0 0] CT
-5 10 moveto 
1 -1 scale
(-3) t 
GR
GR
GS
[1 0 0 1 116.4 378] CT
0.149 GC
/Helvetica 10 F
GS
[1 0 0 1 0 0] CT
-9 10 moveto 
1 -1 scale
(-2.5) t 
GR
GR
GS
[1 0 0 1 159.8 378] CT
0.149 GC
/Helvetica 10 F
GS
[1 0 0 1 0 0] CT
-5 10 moveto 
1 -1 scale
(-2) t 
GR
GR
GS
[1 0 0 1 203.2 378] CT
0.149 GC
/Helvetica 10 F
GS
[1 0 0 1 0 0] CT
-9 10 moveto 
1 -1 scale
(-1.5) t 
GR
GR
GS
[1 0 0 1 246.60001 378] CT
0.149 GC
/Helvetica 10 F
GS
[1 0 0 1 0 0] CT
-5 10 moveto 
1 -1 scale
(-1) t 
GR
GR
GS
[1 0 0 1 290 378] CT
0.149 GC
/Helvetica 10 F
GS
[1 0 0 1 0 0] CT
-9 10 moveto 
1 -1 scale
(-0.5) t 
GR
GR
GS
[1 0 0 1 333.39999 378] CT
0.149 GC
/Helvetica 10 F
GS
[1 0 0 1 0 0] CT
-3 10 moveto 
1 -1 scale
(0) t 
GR
GR
GS
[1 0 0 1 376.79999 378] CT
0.149 GC
/Helvetica 10 F
GS
[1 0 0 1 0 0] CT
-7 10 moveto 
1 -1 scale
(0.5) t 
GR
GR
GS
[1 0 0 1 420.20001 378] CT
0.149 GC
/Helvetica 10 F
GS
[1 0 0 1 0 0] CT
-3 10 moveto 
1 -1 scale
(1) t 
GR
GR
GS
[1 0 0 1 463.60001 378] CT
0.149 GC
/Helvetica 10 F
GS
[1 0 0 1 0 0] CT
-7 10 moveto 
1 -1 scale
(1.5) t 
GR
GR
GS
[1 0 0 1 507 378] CT
0.149 GC
/Helvetica 10 F
GS
[1 0 0 1 0 0] CT
-3 10 moveto 
1 -1 scale
(2) t 
GR
GR
GS
[1 0 0 1 290.00021 391.5] CT
0.149 GC
/Helvetica 11 F
GS
[1 0 0 1 0 0] CT
-116.5 11 moveto 
1 -1 scale
(sigma:15.0, date:all-days-average, #ofUsers:59) t 
GR
GR
GS
0.149 GC
2 setlinecap
1 LJ
0.5 LW
N
73 374 M
73 31.5 L
S
GR
GS
0.149 GC
2 setlinecap
1 LJ
0.5 LW
N
73 374 M
77.34 374 L
S
GR
GS
0.149 GC
2 setlinecap
1 LJ
0.5 LW
N
73 331.188 M
77.34 331.188 L
S
GR
GS
0.149 GC
2 setlinecap
1 LJ
0.5 LW
N
73 288.375 M
77.34 288.375 L
S
GR
GS
0.149 GC
2 setlinecap
1 LJ
0.5 LW
N
73 245.563 M
77.34 245.563 L
S
GR
GS
0.149 GC
2 setlinecap
1 LJ
0.5 LW
N
73 202.75 M
77.34 202.75 L
S
GR
GS
0.149 GC
2 setlinecap
1 LJ
0.5 LW
N
73 159.938 M
77.34 159.938 L
S
GR
GS
0.149 GC
2 setlinecap
1 LJ
0.5 LW
N
73 117.125 M
77.34 117.125 L
S
GR
GS
0.149 GC
2 setlinecap
1 LJ
0.5 LW
N
73 74.313 M
77.34 74.313 L
S
GR
GS
0.149 GC
2 setlinecap
1 LJ
0.5 LW
N
73 31.5 M
77.34 31.5 L
S
GR
GS
[1 0 0 1 69 374] CT
0.149 GC
/Helvetica 10 F
GS
[1 0 0 1 0 0] CT
-18 3.5 moveto 
1 -1 scale
(-2.5) t 
GR
GR
GS
[1 0 0 1 69 331.1875] CT
0.149 GC
/Helvetica 10 F
GS
[1 0 0 1 0 0] CT
-10 3.5 moveto 
1 -1 scale
(-2) t 
GR
GR
GS
[1 0 0 1 69 288.375] CT
0.149 GC
/Helvetica 10 F
GS
[1 0 0 1 0 0] CT
-18 3.5 moveto 
1 -1 scale
(-1.5) t 
GR
GR
GS
[1 0 0 1 69 245.5625] CT
0.149 GC
/Helvetica 10 F
GS
[1 0 0 1 0 0] CT
-10 3.5 moveto 
1 -1 scale
(-1) t 
GR
GR
GS
[1 0 0 1 69 202.75] CT
0.149 GC
/Helvetica 10 F
GS
[1 0 0 1 0 0] CT
-18 3.5 moveto 
1 -1 scale
(-0.5) t 
GR
GR
GS
[1 0 0 1 69 159.9375] CT
0.149 GC
/Helvetica 10 F
GS
[1 0 0 1 0 0] CT
-6 3.5 moveto 
1 -1 scale
(0) t 
GR
GR
GS
[1 0 0 1 69 117.125] CT
0.149 GC
/Helvetica 10 F
GS
[1 0 0 1 0 0] CT
-14 3.5 moveto 
1 -1 scale
(0.5) t 
GR
GR
GS
[1 0 0 1 69 74.3125] CT
0.149 GC
/Helvetica 10 F
GS
[1 0 0 1 0 0] CT
-6 3.5 moveto 
1 -1 scale
(1) t 
GR
GR
GS
[1 0 0 1 69 31.5] CT
0.149 GC
/Helvetica 10 F
GS
[1 0 0 1 0 0] CT
-14 3.5 moveto 
1 -1 scale
(1.5) t 
GR
GR
GS
1 0 0 RC
1 LJ
N
458.5 60.5 M
457.545 57.561 L
455.045 55.745 L
451.955 55.745 L
449.455 57.561 L
448.5 60.5 L
449.455 63.439 L
451.955 65.255 L
455.045 65.255 L
457.545 63.439 L
cp
S
GR
GS
1 0 0 RC
1 LJ
N
424.5 67.5 M
423.545 64.561 L
421.045 62.745 L
417.955 62.745 L
415.455 64.561 L
414.5 67.5 L
415.455 70.439 L
417.955 72.255 L
421.045 72.255 L
423.545 70.439 L
cp
S
GR
GS
1 0 0 RC
1 LJ
N
427.5 48.5 M
426.545 45.561 L
424.045 43.745 L
420.955 43.745 L
418.455 45.561 L
417.5 48.5 L
418.455 51.439 L
420.955 53.255 L
424.045 53.255 L
426.545 51.439 L
cp
S
GR
GS
1 0 0 RC
1 LJ
N
461.5 52.5 M
460.545 49.561 L
458.045 47.745 L
454.955 47.745 L
452.455 49.561 L
451.5 52.5 L
452.455 55.439 L
454.955 57.255 L
458.045 57.255 L
460.545 55.439 L
cp
S
GR
GS
1 0 0 RC
1 LJ
N
412.5 82.5 M
411.545 79.561 L
409.045 77.745 L
405.955 77.745 L
403.455 79.561 L
402.5 82.5 L
403.455 85.439 L
405.955 87.255 L
409.045 87.255 L
411.545 85.439 L
cp
S
GR
GS
1 0 0 RC
1 LJ
N
452.5 50.5 M
451.545 47.561 L
449.045 45.745 L
445.955 45.745 L
443.455 47.561 L
442.5 50.5 L
443.455 53.439 L
445.955 55.255 L
449.045 55.255 L
451.545 53.439 L
cp
S
GR
GS
1 0 0 RC
1 LJ
N
450.5 46.5 M
449.545 43.561 L
447.045 41.745 L
443.955 41.745 L
441.455 43.561 L
440.5 46.5 L
441.455 49.439 L
443.955 51.255 L
447.045 51.255 L
449.545 49.439 L
cp
S
GR
GS
0 1 0 RC
1 LJ
N
92.5 66.5 M
91.545 63.561 L
89.045 61.745 L
85.955 61.745 L
83.455 63.561 L
82.5 66.5 L
83.455 69.439 L
85.955 71.255 L
89.045 71.255 L
91.545 69.439 L
cp
S
GR
GS
0 1 0 RC
1 LJ
N
186.5 77.5 M
185.545 74.561 L
183.045 72.745 L
179.955 72.745 L
177.455 74.561 L
176.5 77.5 L
177.455 80.439 L
179.955 82.255 L
183.045 82.255 L
185.545 80.439 L
cp
S
GR
GS
0 1 0 RC
1 LJ
N
105.5 64.5 M
104.545 61.561 L
102.045 59.745 L
98.955 59.745 L
96.455 61.561 L
95.5 64.5 L
96.455 67.439 L
98.955 69.255 L
102.045 69.255 L
104.545 67.439 L
cp
S
GR
GS
0 1 0 RC
1 LJ
N
99.5 65.5 M
98.545 62.561 L
96.045 60.745 L
92.955 60.745 L
90.455 62.561 L
89.5 65.5 L
90.455 68.439 L
92.955 70.255 L
96.045 70.255 L
98.545 68.439 L
cp
S
GR
GS
0 0 1 RC
1 LJ
N
436.5 123.5 M
435.545 120.561 L
433.045 118.745 L
429.955 118.745 L
427.455 120.561 L
426.5 123.5 L
427.455 126.439 L
429.955 128.255 L
433.045 128.255 L
435.545 126.439 L
cp
S
GR
GS
0 0 1 RC
1 LJ
N
456.5 128.5 M
455.545 125.561 L
453.045 123.745 L
449.955 123.745 L
447.455 125.561 L
446.5 128.5 L
447.455 131.439 L
449.955 133.255 L
453.045 133.255 L
455.545 131.439 L
cp
S
GR
GS
0 0 1 RC
1 LJ
N
432.5 107.5 M
431.545 104.561 L
429.045 102.745 L
425.955 102.745 L
423.455 104.561 L
422.5 107.5 L
423.455 110.439 L
425.955 112.255 L
429.045 112.255 L
431.545 110.439 L
cp
S
GR
GS
0 0 1 RC
1 LJ
N
455.5 122.5 M
454.545 119.561 L
452.045 117.745 L
448.955 117.745 L
446.455 119.561 L
445.5 122.5 L
446.455 125.439 L
448.955 127.255 L
452.045 127.255 L
454.545 125.439 L
cp
S
GR
GS
0 0 1 RC
1 LJ
N
412.5 148.5 M
411.545 145.561 L
409.045 143.745 L
405.955 143.745 L
403.455 145.561 L
402.5 148.5 L
403.455 151.439 L
405.955 153.255 L
409.045 153.255 L
411.545 151.439 L
cp
S
GR
GS
0 0 1 RC
1 LJ
N
435.5 150.5 M
434.545 147.561 L
432.045 145.745 L
428.955 145.745 L
426.455 147.561 L
425.5 150.5 L
426.455 153.439 L
428.955 155.255 L
432.045 155.255 L
434.545 153.439 L
cp
S
GR
GS
1 1 0 RC
1 LJ
N
330.5 335.5 M
329.545 332.561 L
327.045 330.745 L
323.955 330.745 L
321.455 332.561 L
320.5 335.5 L
321.455 338.439 L
323.955 340.255 L
327.045 340.255 L
329.545 338.439 L
cp
S
GR
GS
1 1 0 RC
1 LJ
N
334.5 285.5 M
333.545 282.561 L
331.045 280.745 L
327.955 280.745 L
325.455 282.561 L
324.5 285.5 L
325.455 288.439 L
327.955 290.255 L
331.045 290.255 L
333.545 288.439 L
cp
S
GR
GS
1 1 0 RC
1 LJ
N
304.5 351.5 M
303.545 348.561 L
301.045 346.745 L
297.955 346.745 L
295.455 348.561 L
294.5 351.5 L
295.455 354.439 L
297.955 356.255 L
301.045 356.255 L
303.545 354.439 L
cp
S
GR
GS
1 1 0 RC
1 LJ
N
300.5 348.5 M
299.545 345.561 L
297.045 343.745 L
293.955 343.745 L
291.455 345.561 L
290.5 348.5 L
291.455 351.439 L
293.955 353.255 L
297.045 353.255 L
299.545 351.439 L
cp
S
GR
GS
1 1 0 RC
1 LJ
N
336.5 320.5 M
335.545 317.561 L
333.045 315.745 L
329.955 315.745 L
327.455 317.561 L
326.5 320.5 L
327.455 323.439 L
329.955 325.255 L
333.045 325.255 L
335.545 323.439 L
cp
S
GR
GS
1 1 0 RC
1 LJ
N
300.5 339.5 M
299.545 336.561 L
297.045 334.745 L
293.955 334.745 L
291.455 336.561 L
290.5 339.5 L
291.455 342.439 L
293.955 344.255 L
297.045 344.255 L
299.545 342.439 L
cp
S
GR
GS
1 0 1 RC
1 LJ
N
364.5 161.5 M
363.545 158.561 L
361.045 156.745 L
357.955 156.745 L
355.455 158.561 L
354.5 161.5 L
355.455 164.439 L
357.955 166.255 L
361.045 166.255 L
363.545 164.439 L
cp
S
GR
GS
1 0 1 RC
1 LJ
N
397.5 109.5 M
396.545 106.561 L
394.045 104.745 L
390.955 104.745 L
388.455 106.561 L
387.5 109.5 L
388.455 112.439 L
390.955 114.255 L
394.045 114.255 L
396.545 112.439 L
cp
S
GR
GS
1 0 0 RC
1 LJ
N
459.5 52.5 M
458.545 49.561 L
456.045 47.745 L
452.955 47.745 L
450.455 49.561 L
449.5 52.5 L
450.455 55.439 L
452.955 57.255 L
456.045 57.255 L
458.545 55.439 L
cp
S
GR
GS
1 1 0 RC
1 LJ
N
355.5 322.5 M
354.545 319.561 L
352.045 317.745 L
348.955 317.745 L
346.455 319.561 L
345.5 322.5 L
346.455 325.439 L
348.955 327.255 L
352.045 327.255 L
354.545 325.439 L
cp
S
GR
GS
1 1 0 RC
1 LJ
N
340.5 275.5 M
339.545 272.561 L
337.045 270.745 L
333.955 270.745 L
331.455 272.561 L
330.5 275.5 L
331.455 278.439 L
333.955 280.255 L
337.045 280.255 L
339.545 278.439 L
cp
S
GR
GS
1 1 0 RC
1 LJ
N
312.5 343.5 M
311.545 340.561 L
309.045 338.745 L
305.955 338.745 L
303.455 340.561 L
302.5 343.5 L
303.455 346.439 L
305.955 348.255 L
309.045 348.255 L
311.545 346.439 L
cp
S
GR
GS
1 1 0 RC
1 LJ
N
310.5 352.5 M
309.545 349.561 L
307.045 347.745 L
303.955 347.745 L
301.455 349.561 L
300.5 352.5 L
301.455 355.439 L
303.955 357.255 L
307.045 357.255 L
309.545 355.439 L
cp
S
GR
GS
1 1 0 RC
1 LJ
N
288.5 237.5 M
287.545 234.561 L
285.045 232.745 L
281.955 232.745 L
279.455 234.561 L
278.5 237.5 L
279.455 240.439 L
281.955 242.255 L
285.045 242.255 L
287.545 240.439 L
cp
S
GR
GS
1 1 0 RC
1 LJ
N
292.5 246.5 M
291.545 243.561 L
289.045 241.745 L
285.955 241.745 L
283.455 243.561 L
282.5 246.5 L
283.455 249.439 L
285.955 251.255 L
289.045 251.255 L
291.545 249.439 L
cp
S
GR
GS
1 1 0 RC
1 LJ
N
320.5 337.5 M
319.545 334.561 L
317.045 332.745 L
313.955 332.745 L
311.455 334.561 L
310.5 337.5 L
311.455 340.439 L
313.955 342.255 L
317.045 342.255 L
319.545 340.439 L
cp
S
GR
GS
0 0 1 RC
1 LJ
N
418.5 193.5 M
417.545 190.561 L
415.045 188.745 L
411.955 188.745 L
409.455 190.561 L
408.5 193.5 L
409.455 196.439 L
411.955 198.255 L
415.045 198.255 L
417.545 196.439 L
cp
S
GR
GS
1 1 0 RC
1 LJ
N
374.5 271.5 M
373.545 268.561 L
371.045 266.745 L
367.955 266.745 L
365.455 268.561 L
364.5 271.5 L
365.455 274.439 L
367.955 276.255 L
371.045 276.255 L
373.545 274.439 L
cp
S
GR
GS
1 1 0 RC
1 LJ
N
317.5 330.5 M
316.545 327.561 L
314.045 325.745 L
310.955 325.745 L
308.455 327.561 L
307.5 330.5 L
308.455 333.439 L
310.955 335.255 L
314.045 335.255 L
316.545 333.439 L
cp
S
GR
GS
0 0 1 RC
1 LJ
N
431.5 117.5 M
430.545 114.561 L
428.045 112.745 L
424.955 112.745 L
422.455 114.561 L
421.5 117.5 L
422.455 120.439 L
424.955 122.255 L
428.045 122.255 L
430.545 120.439 L
cp
S
GR
GS
1 0 1 RC
1 LJ
N
344.5 101.5 M
343.545 98.561 L
341.045 96.745 L
337.955 96.745 L
335.455 98.561 L
334.5 101.5 L
335.455 104.439 L
337.955 106.255 L
341.045 106.255 L
343.545 104.439 L
cp
S
GR
GS
1 0 0 RC
1 LJ
N
409.5 63.5 M
408.545 60.561 L
406.045 58.745 L
402.955 58.745 L
400.455 60.561 L
399.5 63.5 L
400.455 66.439 L
402.955 68.255 L
406.045 68.255 L
408.545 66.439 L
cp
S
GR
GS
1 1 0 RC
1 LJ
N
408.5 220.5 M
407.545 217.561 L
405.045 215.745 L
401.955 215.745 L
399.455 217.561 L
398.5 220.5 L
399.455 223.439 L
401.955 225.255 L
405.045 225.255 L
407.545 223.439 L
cp
S
GR
GS
1 1 0 RC
1 LJ
N
328.5 314.5 M
327.545 311.561 L
325.045 309.745 L
321.955 309.745 L
319.455 311.561 L
318.5 314.5 L
319.455 317.439 L
321.955 319.255 L
325.045 319.255 L
327.545 317.439 L
cp
S
GR
GS
1 1 0 RC
1 LJ
N
292.5 331.5 M
291.545 328.561 L
289.045 326.745 L
285.955 326.745 L
283.455 328.561 L
282.5 331.5 L
283.455 334.439 L
285.955 336.255 L
289.045 336.255 L
291.545 334.439 L
cp
S
GR
GS
1 1 0 RC
1 LJ
N
339.5 252.5 M
338.545 249.561 L
336.045 247.745 L
332.955 247.745 L
330.455 249.561 L
329.5 252.5 L
330.455 255.439 L
332.955 257.255 L
336.045 257.255 L
338.545 255.439 L
cp
S
GR
GS
0 0 1 RC
1 LJ
N
460.5 110.5 M
459.545 107.561 L
457.045 105.745 L
453.955 105.745 L
451.455 107.561 L
450.5 110.5 L
451.455 113.439 L
453.955 115.255 L
457.045 115.255 L
459.545 113.439 L
cp
S
GR
GS
0 0 1 RC
1 LJ
N
425.5 123.5 M
424.545 120.561 L
422.045 118.745 L
418.955 118.745 L
416.455 120.561 L
415.5 123.5 L
416.455 126.439 L
418.955 128.255 L
422.045 128.255 L
424.545 126.439 L
cp
S
GR
GS
0 0 1 RC
1 LJ
N
437.5 122.5 M
436.545 119.561 L
434.045 117.745 L
430.955 117.745 L
428.455 119.561 L
427.5 122.5 L
428.455 125.439 L
430.955 127.255 L
434.045 127.255 L
436.545 125.439 L
cp
S
GR
GS
0 0 1 RC
1 LJ
N
448.5 130.5 M
447.545 127.561 L
445.045 125.745 L
441.955 125.745 L
439.455 127.561 L
438.5 130.5 L
439.455 133.439 L
441.955 135.255 L
445.045 135.255 L
447.545 133.439 L
cp
S
GR
GS
0 0 1 RC
1 LJ
N
465.5 99.5 M
464.545 96.561 L
462.045 94.745 L
458.955 94.745 L
456.455 96.561 L
455.5 99.5 L
456.455 102.439 L
458.955 104.255 L
462.045 104.255 L
464.545 102.439 L
cp
S
GR
GS
0 1 0 RC
1 LJ
N
112.5 68.5 M
111.545 65.561 L
109.045 63.745 L
105.955 63.745 L
103.455 65.561 L
102.5 68.5 L
103.455 71.439 L
105.955 73.255 L
109.045 73.255 L
111.545 71.439 L
cp
S
GR
GS
0 1 0 RC
1 LJ
N
98.5 65.5 M
97.545 62.561 L
95.045 60.745 L
91.955 60.745 L
89.455 62.561 L
88.5 65.5 L
89.455 68.439 L
91.955 70.255 L
95.045 70.255 L
97.545 68.439 L
cp
S
GR
GS
0 1 0 RC
1 LJ
N
124.5 86.5 M
123.545 83.561 L
121.045 81.745 L
117.955 81.745 L
115.455 83.561 L
114.5 86.5 L
115.455 89.439 L
117.955 91.255 L
121.045 91.255 L
123.545 89.439 L
cp
S
GR
GS
0 1 0 RC
1 LJ
N
124.5 85.5 M
123.545 82.561 L
121.045 80.745 L
117.955 80.745 L
115.455 82.561 L
114.5 85.5 L
115.455 88.439 L
117.955 90.255 L
121.045 90.255 L
123.545 88.439 L
cp
S
GR
GS
0 1 0 RC
1 LJ
N
96.5 66.5 M
95.545 63.561 L
93.045 61.745 L
89.955 61.745 L
87.455 63.561 L
86.5 66.5 L
87.455 69.439 L
89.955 71.255 L
93.045 71.255 L
95.545 69.439 L
cp
S
GR
GS
0 1 0 RC
1 LJ
N
88.5 65.5 M
87.545 62.561 L
85.045 60.745 L
81.955 60.745 L
79.455 62.561 L
78.5 65.5 L
79.455 68.439 L
81.955 70.255 L
85.045 70.255 L
87.545 68.439 L
cp
S
GR
GS
0 1 0 RC
1 LJ
N
93.5 64.5 M
92.545 61.561 L
90.045 59.745 L
86.955 59.745 L
84.455 61.561 L
83.5 64.5 L
84.455 67.439 L
86.955 69.255 L
90.045 69.255 L
92.545 67.439 L
cp
S
GR
GS
1 0 0 RC
1 LJ
N
438.5 42.5 M
437.545 39.561 L
435.045 37.745 L
431.955 37.745 L
429.455 39.561 L
428.5 42.5 L
429.455 45.439 L
431.955 47.255 L
435.045 47.255 L
437.545 45.439 L
cp
S
GR
GS
1 0 0 RC
1 LJ
N
454.5 53.5 M
453.545 50.561 L
451.045 48.745 L
447.955 48.745 L
445.455 50.561 L
444.5 53.5 L
445.455 56.439 L
447.955 58.255 L
451.045 58.255 L
453.545 56.439 L
cp
S
GR
GS
1 0 0 RC
1 LJ
N
425.5 57.5 M
424.545 54.561 L
422.045 52.745 L
418.955 52.745 L
416.455 54.561 L
415.5 57.5 L
416.455 60.439 L
418.955 62.255 L
422.045 62.255 L
424.545 60.439 L
cp
S
GR
GS
1 0 0 RC
1 LJ
N
454.5 109.5 M
453.545 106.561 L
451.045 104.745 L
447.955 104.745 L
445.455 106.561 L
444.5 109.5 L
445.455 112.439 L
447.955 114.255 L
451.045 114.255 L
453.545 112.439 L
cp
S
GR
GS
[1 0 0 1 453.48978 60.68208] CT
/Helvetica 10 F
GS
[1 0 0 1 0 0] CT
0 3.5 moveto 
1 -1 scale
(3) t 
GR
GR
GS
[1 0 0 1 419.94308 67.98562] CT
/Helvetica 10 F
GS
[1 0 0 1 0 0] CT
0 3.5 moveto 
1 -1 scale
(0) t 
GR
GR
GS
[1 0 0 1 422.88416 48.22475] CT
/Helvetica 10 F
GS
[1 0 0 1 0 0] CT
0 3.5 moveto 
1 -1 scale
(0) t 
GR
GR
GS
[1 0 0 1 456.54977 52.48759] CT
/Helvetica 10 F
GS
[1 0 0 1 0 0] CT
0 3.5 moveto 
1 -1 scale
(0) t 
GR
GR
GS
[1 0 0 1 407.56879 82.11443] CT
/Helvetica 10 F
GS
[1 0 0 1 0 0] CT
0 3.5 moveto 
1 -1 scale
(3) t 
GR
GR
GS
[1 0 0 1 447.32843 50.13128] CT
/Helvetica 10 F
GS
[1 0 0 1 0 0] CT
0 3.5 moveto 
1 -1 scale
(0) t 
GR
GR
GS
[1 0 0 1 445.16022 46.43324] CT
/Helvetica 10 F
GS
[1 0 0 1 0 0] CT
0 3.5 moveto 
1 -1 scale
(0) t 
GR
GR
GS
[1 0 0 1 87.76836 66.92541] CT
/Helvetica 10 F
GS
[1 0 0 1 0 0] CT
0 3.5 moveto 
1 -1 scale
(2) t 
GR
GR
GS
[1 0 0 1 181.52962 77.38179] CT
/Helvetica 10 F
GS
[1 0 0 1 0 0] CT
0 3.5 moveto 
1 -1 scale
(2) t 
GR
GR
GS
[1 0 0 1 100.16045 64.93036] CT
/Helvetica 10 F
GS
[1 0 0 1 0 0] CT
0 3.5 moveto 
1 -1 scale
(2) t 
GR
GR
GS
[1 0 0 1 94.18244 65.31596] CT
/Helvetica 10 F
GS
[1 0 0 1 0 0] CT
0 3.5 moveto 
1 -1 scale
(2) t 
GR
GR
GS
[1 0 0 1 431.4371 123.99878] CT
/Helvetica 10 F
GS
[1 0 0 1 0 0] CT
0 3.5 moveto 
1 -1 scale
(3) t 
GR
GR
GS
[1 0 0 1 451.45618 128.5412] CT
/Helvetica 10 F
GS
[1 0 0 1 0 0] CT
0 3.5 moveto 
1 -1 scale
(3) t 
GR
GR
GS
[1 0 0 1 427.41043 107.62312] CT
/Helvetica 10 F
GS
[1 0 0 1 0 0] CT
0 3.5 moveto 
1 -1 scale
(3) t 
GR
GR
GS
[1 0 0 1 450.58307 122.49821] CT
/Helvetica 10 F
GS
[1 0 0 1 0 0] CT
0 3.5 moveto 
1 -1 scale
(3) t 
GR
GR
GS
[1 0 0 1 407.51025 148.30963] CT
/Helvetica 10 F
GS
[1 0 0 1 0 0] CT
0 3.5 moveto 
1 -1 scale
(3) t 
GR
GR
GS
[1 0 0 1 430.18253 150.431] CT
/Helvetica 10 F
GS
[1 0 0 1 0 0] CT
0 3.5 moveto 
1 -1 scale
(3) t 
GR
GR
GS
[1 0 0 1 325.51859 335.05057] CT
/Helvetica 10 F
GS
[1 0 0 1 0 0] CT
0 3.5 moveto 
1 -1 scale
(1) t 
GR
GR
GS
[1 0 0 1 329.20865 285.47772] CT
/Helvetica 10 F
GS
[1 0 0 1 0 0] CT
0 3.5 moveto 
1 -1 scale
(1) t 
GR
GR
GS
[1 0 0 1 299.97968 351.53568] CT
/Helvetica 10 F
GS
[1 0 0 1 0 0] CT
0 3.5 moveto 
1 -1 scale
(1) t 
GR
GR
GS
[1 0 0 1 295.80655 348.0647] CT
/Helvetica 10 F
GS
[1 0 0 1 0 0] CT
0 3.5 moveto 
1 -1 scale
(1) t 
GR
GR
GS
[1 0 0 1 331.92654 320.94604] CT
/Helvetica 10 F
GS
[1 0 0 1 0 0] CT
0 3.5 moveto 
1 -1 scale
(1) t 
GR
GR
GS
[1 0 0 1 295.91919 339.88922] CT
/Helvetica 10 F
GS
[1 0 0 1 0 0] CT
0 3.5 moveto 
1 -1 scale
(1) t 
GR
GR
GS
[1 0 0 1 359.54379 161.91795] CT
/Helvetica 10 F
GS
[1 0 0 1 0 0] CT
0 3.5 moveto 
1 -1 scale
(3) t 
GR
GR
GS
[1 0 0 1 392.34827 109.07204] CT
/Helvetica 10 F
GS
[1 0 0 1 0 0] CT
0 3.5 moveto 
1 -1 scale
(3) t 
GR
GR
GS
[1 0 0 1 454.16251 52.86782] CT
/Helvetica 10 F
GS
[1 0 0 1 0 0] CT
0 3.5 moveto 
1 -1 scale
(0) t 
GR
GR
GS
[1 0 0 1 350.42471 322.22321] CT
/Helvetica 10 F
GS
[1 0 0 1 0 0] CT
0 3.5 moveto 
1 -1 scale
(1) t 
GR
GR
GS
[1 0 0 1 335.95755 275.58466] CT
/Helvetica 10 F
GS
[1 0 0 1 0 0] CT
0 3.5 moveto 
1 -1 scale
(1) t 
GR
GR
GS
[1 0 0 1 307.94794 343.22351] CT
/Helvetica 10 F
GS
[1 0 0 1 0 0] CT
0 3.5 moveto 
1 -1 scale
(1) t 
GR
GR
GS
[1 0 0 1 305.37823 352.94336] CT
/Helvetica 10 F
GS
[1 0 0 1 0 0] CT
0 3.5 moveto 
1 -1 scale
(1) t 
GR
GR
GS
[1 0 0 1 283.69806 237.53136] CT
/Helvetica 10 F
GS
[1 0 0 1 0 0] CT
0 3.5 moveto 
1 -1 scale
(1) t 
GR
GR
GS
[1 0 0 1 287.25406 246.97977] CT
/Helvetica 10 F
GS
[1 0 0 1 0 0] CT
0 3.5 moveto 
1 -1 scale
(1) t 
GR
GR
GS
[1 0 0 1 315.09213 337.92712] CT
/Helvetica 10 F
GS
[1 0 0 1 0 0] CT
0 3.5 moveto 
1 -1 scale
(1) t 
GR
GR
GS
[1 0 0 1 413.74194 193.74353] CT
/Helvetica 10 F
GS
[1 0 0 1 0 0] CT
0 3.5 moveto 
1 -1 scale
(3) t 
GR
GR
GS
[1 0 0 1 369.3783 271.62537] CT
/Helvetica 10 F
GS
[1 0 0 1 0 0] CT
0 3.5 moveto 
1 -1 scale
(1) t 
GR
GR
GS
[1 0 0 1 312.93536 330.56989] CT
/Helvetica 10 F
GS
[1 0 0 1 0 0] CT
0 3.5 moveto 
1 -1 scale
(1) t 
GR
GR
GS
[1 0 0 1 426.59207 117.76842] CT
/Helvetica 10 F
GS
[1 0 0 1 0 0] CT
0 3.5 moveto 
1 -1 scale
(3) t 
GR
GR
GS
[1 0 0 1 339.39017 101.58907] CT
/Helvetica 10 F
GS
[1 0 0 1 0 0] CT
0 3.5 moveto 
1 -1 scale
(0) t 
GR
GR
GS
[1 0 0 1 404.7655 63.68923] CT
/Helvetica 10 F
GS
[1 0 0 1 0 0] CT
0 3.5 moveto 
1 -1 scale
(0) t 
GR
GR
GS
[1 0 0 1 403.44379 220.74562] CT
/Helvetica 10 F
GS
[1 0 0 1 0 0] CT
0 3.5 moveto 
1 -1 scale
(3) t 
GR
GR
GS
[1 0 0 1 323.79007 314.08575] CT
/Helvetica 10 F
GS
[1 0 0 1 0 0] CT
0 3.5 moveto 
1 -1 scale
(1) t 
GR
GR
GS
[1 0 0 1 287.31332 331.02505] CT
/Helvetica 10 F
GS
[1 0 0 1 0 0] CT
0 3.5 moveto 
1 -1 scale
(1) t 
GR
GR
GS
[1 0 0 1 334.28204 252.28807] CT
/Helvetica 10 F
GS
[1 0 0 1 0 0] CT
0 3.5 moveto 
1 -1 scale
(1) t 
GR
GR
GS
[1 0 0 1 455.52158 110.95509] CT
/Helvetica 10 F
GS
[1 0 0 1 0 0] CT
0 3.5 moveto 
1 -1 scale
(3) t 
GR
GR
GS
[1 0 0 1 420.34695 123.22668] CT
/Helvetica 10 F
GS
[1 0 0 1 0 0] CT
0 3.5 moveto 
1 -1 scale
(3) t 
GR
GR
GS
[1 0 0 1 432.70349 122.39503] CT
/Helvetica 10 F
GS
[1 0 0 1 0 0] CT
0 3.5 moveto 
1 -1 scale
(3) t 
GR
GR
GS
[1 0 0 1 443.96167 130.4751] CT
/Helvetica 10 F
GS
[1 0 0 1 0 0] CT
0 3.5 moveto 
1 -1 scale
(3) t 
GR
GR
GS
[1 0 0 1 460.85214 99.70337] CT
/Helvetica 10 F
GS
[1 0 0 1 0 0] CT
0 3.5 moveto 
1 -1 scale
(3) t 
GR
GR
GS
[1 0 0 1 107.90852 68.72616] CT
/Helvetica 10 F
GS
[1 0 0 1 0 0] CT
0 3.5 moveto 
1 -1 scale
(2) t 
GR
GR
GS
[1 0 0 1 93.80284 65.37304] CT
/Helvetica 10 F
GS
[1 0 0 1 0 0] CT
0 3.5 moveto 
1 -1 scale
(2) t 
GR
GR
GS
[1 0 0 1 119.07983 86.46753] CT
/Helvetica 10 F
GS
[1 0 0 1 0 0] CT
0 3.5 moveto 
1 -1 scale
(2) t 
GR
GR
GS
[1 0 0 1 119.06944 85.82803] CT
/Helvetica 10 F
GS
[1 0 0 1 0 0] CT
0 3.5 moveto 
1 -1 scale
(2) t 
GR
GR
GS
[1 0 0 1 91.77322 66.68201] CT
/Helvetica 10 F
GS
[1 0 0 1 0 0] CT
0 3.5 moveto 
1 -1 scale
(2) t 
GR
GR
GS
[1 0 0 1 83.33185 65.94886] CT
/Helvetica 10 F
GS
[1 0 0 1 0 0] CT
0 3.5 moveto 
1 -1 scale
(2) t 
GR
GR
GS
[1 0 0 1 88.49166 64.7728] CT
/Helvetica 10 F
GS
[1 0 0 1 0 0] CT
0 3.5 moveto 
1 -1 scale
(2) t 
GR
GR
GS
[1 0 0 1 433.9061 42.85733] CT
/Helvetica 10 F
GS
[1 0 0 1 0 0] CT
0 3.5 moveto 
1 -1 scale
(3) t 
GR
GR
GS
[1 0 0 1 449.02563 53.75494] CT
/Helvetica 10 F
GS
[1 0 0 1 0 0] CT
0 3.5 moveto 
1 -1 scale
(0) t 
GR
GR
GS
[1 0 0 1 420.16629 57.67955] CT
/Helvetica 10 F
GS
[1 0 0 1 0 0] CT
0 3.5 moveto 
1 -1 scale
(0) t 
GR
GR
GS
[1 0 0 1 449.71512 109.08788] CT
/Helvetica 10 F
GS
[1 0 0 1 0 0] CT
0 3.5 moveto 
1 -1 scale
(3) t 
GR
GR
%%Trailer
%%Pages: 1
%%EOF
