%!PS-Adobe-3.0 EPSF-3.0
%%Creator: (MATLAB, The Mathworks, Inc. Version 9.0.0.341360 \(R2016a\). Operating System: Mac OS X)
%%Title: /Users/duan/Documents/presentation/midterm20190215/figures/Projected_allDaysAverageRSSI.eps
%%CreationDate: 2019-02-02T17:05:40
%%Pages: (atend)
%%BoundingBox: 0 0 560 420
%%LanguageLevel: 3
%%EndComments
%%BeginProlog
%%BeginResource: procset (Apache XML Graphics Std ProcSet) 1.2 0
%%Version: 1.2 0
%%Copyright: (Copyright 2001-2003,2010 The Apache Software Foundation. License terms: http://www.apache.org/licenses/LICENSE-2.0)
/bd{bind def}bind def
/ld{load def}bd
/GR/grestore ld
/M/moveto ld
/LJ/setlinejoin ld
/C/curveto ld
/f/fill ld
/LW/setlinewidth ld
/GC/setgray ld
/t/show ld
/N/newpath ld
/CT/concat ld
/cp/closepath ld
/S/stroke ld
/L/lineto ld
/CC/setcmykcolor ld
/A/ashow ld
/GS/gsave ld
/RC/setrgbcolor ld
/RM/rmoveto ld
/ML/setmiterlimit ld
/re {4 2 roll M
1 index 0 rlineto
0 exch rlineto
neg 0 rlineto
cp } bd
/_ctm matrix def
/_tm matrix def
/BT { _ctm currentmatrix pop matrix _tm copy pop 0 0 moveto } bd
/ET { _ctm setmatrix } bd
/iTm { _ctm setmatrix _tm concat } bd
/Tm { _tm astore pop iTm 0 0 moveto } bd
/ux 0.0 def
/uy 0.0 def
/F {
  /Tp exch def
  /Tf exch def
  Tf findfont Tp scalefont setfont
  /cf Tf def  /cs Tp def
} bd
/ULS {currentpoint /uy exch def /ux exch def} bd
/ULE {
  /Tcx currentpoint pop def
  gsave
  newpath
  cf findfont cs scalefont dup
  /FontMatrix get 0 get /Ts exch def /FontInfo get dup
  /UnderlinePosition get Ts mul /To exch def
  /UnderlineThickness get Ts mul /Tt exch def
  ux uy To add moveto  Tcx uy To add lineto
  Tt setlinewidth stroke
  grestore
} bd
/OLE {
  /Tcx currentpoint pop def
  gsave
  newpath
  cf findfont cs scalefont dup
  /FontMatrix get 0 get /Ts exch def /FontInfo get dup
  /UnderlinePosition get Ts mul /To exch def
  /UnderlineThickness get Ts mul /Tt exch def
  ux uy To add cs add moveto Tcx uy To add cs add lineto
  Tt setlinewidth stroke
  grestore
} bd
/SOE {
  /Tcx currentpoint pop def
  gsave
  newpath
  cf findfont cs scalefont dup
  /FontMatrix get 0 get /Ts exch def /FontInfo get dup
  /UnderlinePosition get Ts mul /To exch def
  /UnderlineThickness get Ts mul /Tt exch def
  ux uy To add cs 10 mul 26 idiv add moveto Tcx uy To add cs 10 mul 26 idiv add lineto
  Tt setlinewidth stroke
  grestore
} bd
/QT {
/Y22 exch store
/X22 exch store
/Y21 exch store
/X21 exch store
currentpoint
/Y21 load 2 mul add 3 div exch
/X21 load 2 mul add 3 div exch
/X21 load 2 mul /X22 load add 3 div
/Y21 load 2 mul /Y22 load add 3 div
/X22 load /Y22 load curveto
} bd
/SSPD {
dup length /d exch dict def
{
/v exch def
/k exch def
currentpagedevice k known {
/cpdv currentpagedevice k get def
v cpdv ne {
/upd false def
/nullv v type /nulltype eq def
/nullcpdv cpdv type /nulltype eq def
nullv nullcpdv or
{
/upd true def
} {
/sametype v type cpdv type eq def
sametype {
v type /arraytype eq {
/vlen v length def
/cpdvlen cpdv length def
vlen cpdvlen eq {
0 1 vlen 1 sub {
/i exch def
/obj v i get def
/cpdobj cpdv i get def
obj cpdobj ne {
/upd true def
exit
} if
} for
} {
/upd true def
} ifelse
} {
v type /dicttype eq {
v {
/dv exch def
/dk exch def
/cpddv cpdv dk get def
dv cpddv ne {
/upd true def
exit
} if
} forall
} {
/upd true def
} ifelse
} ifelse
} if
} ifelse
upd true eq {
d k v put
} if
} if
} if
} forall
d length 0 gt {
d setpagedevice
} if
} bd
%%EndResource
%%BeginResource: procset (Apache XML Graphics EPS ProcSet) 1.0 0
%%Version: 1.0 0
%%Copyright: (Copyright 2002-2003 The Apache Software Foundation. License terms: http://www.apache.org/licenses/LICENSE-2.0)
/BeginEPSF { %def
/b4_Inc_state save def         % Save state for cleanup
/dict_count countdictstack def % Count objects on dict stack
/op_count count 1 sub def      % Count objects on operand stack
userdict begin                 % Push userdict on dict stack
/showpage { } def              % Redefine showpage, { } = null proc
0 setgray 0 setlinecap         % Prepare graphics state
1 setlinewidth 0 setlinejoin
10 setmiterlimit [ ] 0 setdash newpath
/languagelevel where           % If level not equal to 1 then
{pop languagelevel             % set strokeadjust and
1 ne                           % overprint to their defaults.
{false setstrokeadjust false setoverprint
} if
} if
} bd
/EndEPSF { %def
count op_count sub {pop} repeat            % Clean up stacks
countdictstack dict_count sub {end} repeat
b4_Inc_state restore
} bd
%%EndResource
%FOPBeginFontDict
%%IncludeResource: font Courier-Bold
%%IncludeResource: font Helvetica
%%IncludeResource: font Courier-BoldOblique
%%IncludeResource: font Courier-Oblique
%%IncludeResource: font Times-Roman
%%IncludeResource: font Helvetica-BoldOblique
%%IncludeResource: font Helvetica-Bold
%%IncludeResource: font Helvetica-Oblique
%%IncludeResource: font Times-BoldItalic
%%IncludeResource: font Courier
%%IncludeResource: font Times-Italic
%%IncludeResource: font Times-Bold
%%IncludeResource: font Symbol
%%IncludeResource: font ZapfDingbats
%FOPEndFontDict
%%BeginResource: encoding WinAnsiEncoding
/WinAnsiEncoding [
/.notdef /.notdef /.notdef /.notdef /.notdef
/.notdef /.notdef /.notdef /.notdef /.notdef
/.notdef /.notdef /.notdef /.notdef /.notdef
/.notdef /.notdef /.notdef /.notdef /.notdef
/.notdef /.notdef /.notdef /.notdef /.notdef
/.notdef /.notdef /.notdef /.notdef /.notdef
/.notdef /.notdef /space /exclam /quotedbl
/numbersign /dollar /percent /ampersand /quotesingle
/parenleft /parenright /asterisk /plus /comma
/hyphen /period /slash /zero /one
/two /three /four /five /six
/seven /eight /nine /colon /semicolon
/less /equal /greater /question /at
/A /B /C /D /E
/F /G /H /I /J
/K /L /M /N /O
/P /Q /R /S /T
/U /V /W /X /Y
/Z /bracketleft /backslash /bracketright /asciicircum
/underscore /quoteleft /a /b /c
/d /e /f /g /h
/i /j /k /l /m
/n /o /p /q /r
/s /t /u /v /w
/x /y /z /braceleft /bar
/braceright /asciitilde /bullet /Euro /bullet
/quotesinglbase /florin /quotedblbase /ellipsis /dagger
/daggerdbl /circumflex /perthousand /Scaron /guilsinglleft
/OE /bullet /Zcaron /bullet /bullet
/quoteleft /quoteright /quotedblleft /quotedblright /bullet
/endash /emdash /asciitilde /trademark /scaron
/guilsinglright /oe /bullet /zcaron /Ydieresis
/space /exclamdown /cent /sterling /currency
/yen /brokenbar /section /dieresis /copyright
/ordfeminine /guillemotleft /logicalnot /sfthyphen /registered
/macron /degree /plusminus /twosuperior /threesuperior
/acute /mu /paragraph /middot /cedilla
/onesuperior /ordmasculine /guillemotright /onequarter /onehalf
/threequarters /questiondown /Agrave /Aacute /Acircumflex
/Atilde /Adieresis /Aring /AE /Ccedilla
/Egrave /Eacute /Ecircumflex /Edieresis /Igrave
/Iacute /Icircumflex /Idieresis /Eth /Ntilde
/Ograve /Oacute /Ocircumflex /Otilde /Odieresis
/multiply /Oslash /Ugrave /Uacute /Ucircumflex
/Udieresis /Yacute /Thorn /germandbls /agrave
/aacute /acircumflex /atilde /adieresis /aring
/ae /ccedilla /egrave /eacute /ecircumflex
/edieresis /igrave /iacute /icircumflex /idieresis
/eth /ntilde /ograve /oacute /ocircumflex
/otilde /odieresis /divide /oslash /ugrave
/uacute /ucircumflex /udieresis /yacute /thorn
/ydieresis
] def
%%EndResource
%FOPBeginFontReencode
/Courier-Bold findfont
dup length dict begin
  {1 index /FID ne {def} {pop pop} ifelse} forall
  /Encoding WinAnsiEncoding def
  currentdict
end
/Courier-Bold exch definefont pop
/Helvetica findfont
dup length dict begin
  {1 index /FID ne {def} {pop pop} ifelse} forall
  /Encoding WinAnsiEncoding def
  currentdict
end
/Helvetica exch definefont pop
/Courier-BoldOblique findfont
dup length dict begin
  {1 index /FID ne {def} {pop pop} ifelse} forall
  /Encoding WinAnsiEncoding def
  currentdict
end
/Courier-BoldOblique exch definefont pop
/Courier-Oblique findfont
dup length dict begin
  {1 index /FID ne {def} {pop pop} ifelse} forall
  /Encoding WinAnsiEncoding def
  currentdict
end
/Courier-Oblique exch definefont pop
/Times-Roman findfont
dup length dict begin
  {1 index /FID ne {def} {pop pop} ifelse} forall
  /Encoding WinAnsiEncoding def
  currentdict
end
/Times-Roman exch definefont pop
/Helvetica-BoldOblique findfont
dup length dict begin
  {1 index /FID ne {def} {pop pop} ifelse} forall
  /Encoding WinAnsiEncoding def
  currentdict
end
/Helvetica-BoldOblique exch definefont pop
/Helvetica-Bold findfont
dup length dict begin
  {1 index /FID ne {def} {pop pop} ifelse} forall
  /Encoding WinAnsiEncoding def
  currentdict
end
/Helvetica-Bold exch definefont pop
/Helvetica-Oblique findfont
dup length dict begin
  {1 index /FID ne {def} {pop pop} ifelse} forall
  /Encoding WinAnsiEncoding def
  currentdict
end
/Helvetica-Oblique exch definefont pop
/Times-BoldItalic findfont
dup length dict begin
  {1 index /FID ne {def} {pop pop} ifelse} forall
  /Encoding WinAnsiEncoding def
  currentdict
end
/Times-BoldItalic exch definefont pop
/Courier findfont
dup length dict begin
  {1 index /FID ne {def} {pop pop} ifelse} forall
  /Encoding WinAnsiEncoding def
  currentdict
end
/Courier exch definefont pop
/Times-Italic findfont
dup length dict begin
  {1 index /FID ne {def} {pop pop} ifelse} forall
  /Encoding WinAnsiEncoding def
  currentdict
end
/Times-Italic exch definefont pop
/Times-Bold findfont
dup length dict begin
  {1 index /FID ne {def} {pop pop} ifelse} forall
  /Encoding WinAnsiEncoding def
  currentdict
end
/Times-Bold exch definefont pop
%FOPEndFontReencode
%%EndProlog
%%Page: 1 1
%%PageBoundingBox: 0 0 560 420
%%BeginPageSetup
[1 0 0 -1 0 420] CT
%%EndPageSetup
GS
1 GC
N
0 0 560 420 re
f
GR
GS
1 GC
N
0 0 560 420 re
f
GR
GS
1 GC
N
73 374 M
507 374 L
507 31.5 L
73 31.5 L
cp
f
GR
GS
0.149 GC
2 setlinecap
1 LJ
0.5 LW
N
73 374 M
507 374 L
S
GR
GS
0.149 GC
2 setlinecap
1 LJ
0.5 LW
N
73 374 M
73 369.66 L
S
GR
GS
0.149 GC
2 setlinecap
1 LJ
0.5 LW
N
121.222 374 M
121.222 369.66 L
S
GR
GS
0.149 GC
2 setlinecap
1 LJ
0.5 LW
N
169.444 374 M
169.444 369.66 L
S
GR
GS
0.149 GC
2 setlinecap
1 LJ
0.5 LW
N
217.667 374 M
217.667 369.66 L
S
GR
GS
0.149 GC
2 setlinecap
1 LJ
0.5 LW
N
265.889 374 M
265.889 369.66 L
S
GR
GS
0.149 GC
2 setlinecap
1 LJ
0.5 LW
N
314.111 374 M
314.111 369.66 L
S
GR
GS
0.149 GC
2 setlinecap
1 LJ
0.5 LW
N
362.333 374 M
362.333 369.66 L
S
GR
GS
0.149 GC
2 setlinecap
1 LJ
0.5 LW
N
410.556 374 M
410.556 369.66 L
S
GR
GS
0.149 GC
2 setlinecap
1 LJ
0.5 LW
N
458.778 374 M
458.778 369.66 L
S
GR
GS
0.149 GC
2 setlinecap
1 LJ
0.5 LW
N
507 374 M
507 369.66 L
S
GR
GS
[1 0 0 1 73 378] CT
0.149 GC
/Helvetica 10 F
GS
[1 0 0 1 0 0] CT
-5 10 moveto 
1 -1 scale
(-3) t 
GR
GR
GS
[1 0 0 1 121.22222 378] CT
0.149 GC
/Helvetica 10 F
GS
[1 0 0 1 0 0] CT
-9 10 moveto 
1 -1 scale
(-2.5) t 
GR
GR
GS
[1 0 0 1 169.44444 378] CT
0.149 GC
/Helvetica 10 F
GS
[1 0 0 1 0 0] CT
-5 10 moveto 
1 -1 scale
(-2) t 
GR
GR
GS
[1 0 0 1 217.66667 378] CT
0.149 GC
/Helvetica 10 F
GS
[1 0 0 1 0 0] CT
-9 10 moveto 
1 -1 scale
(-1.5) t 
GR
GR
GS
[1 0 0 1 265.88889 378] CT
0.149 GC
/Helvetica 10 F
GS
[1 0 0 1 0 0] CT
-5 10 moveto 
1 -1 scale
(-1) t 
GR
GR
GS
[1 0 0 1 314.11111 378] CT
0.149 GC
/Helvetica 10 F
GS
[1 0 0 1 0 0] CT
-9 10 moveto 
1 -1 scale
(-0.5) t 
GR
GR
GS
[1 0 0 1 362.33334 378] CT
0.149 GC
/Helvetica 10 F
GS
[1 0 0 1 0 0] CT
-3 10 moveto 
1 -1 scale
(0) t 
GR
GR
GS
[1 0 0 1 410.55554 378] CT
0.149 GC
/Helvetica 10 F
GS
[1 0 0 1 0 0] CT
-7 10 moveto 
1 -1 scale
(0.5) t 
GR
GR
GS
[1 0 0 1 458.77777 378] CT
0.149 GC
/Helvetica 10 F
GS
[1 0 0 1 0 0] CT
-3 10 moveto 
1 -1 scale
(1) t 
GR
GR
GS
[1 0 0 1 507 378] CT
0.149 GC
/Helvetica 10 F
GS
[1 0 0 1 0 0] CT
-7 10 moveto 
1 -1 scale
(1.5) t 
GR
GR
GS
[1 0 0 1 290.00021 391.5] CT
0.149 GC
/Helvetica 11 F
GS
[1 0 0 1 0 0] CT
-95 11 moveto 
1 -1 scale
(all day average fingerprints, sigma15.0) t 
GR
GR
GS
0.149 GC
2 setlinecap
1 LJ
0.5 LW
N
73 374 M
73 31.5 L
S
GR
GS
0.149 GC
2 setlinecap
1 LJ
0.5 LW
N
73 374 M
77.34 374 L
S
GR
GS
0.149 GC
2 setlinecap
1 LJ
0.5 LW
N
73 331.188 M
77.34 331.188 L
S
GR
GS
0.149 GC
2 setlinecap
1 LJ
0.5 LW
N
73 288.375 M
77.34 288.375 L
S
GR
GS
0.149 GC
2 setlinecap
1 LJ
0.5 LW
N
73 245.563 M
77.34 245.563 L
S
GR
GS
0.149 GC
2 setlinecap
1 LJ
0.5 LW
N
73 202.75 M
77.34 202.75 L
S
GR
GS
0.149 GC
2 setlinecap
1 LJ
0.5 LW
N
73 159.938 M
77.34 159.938 L
S
GR
GS
0.149 GC
2 setlinecap
1 LJ
0.5 LW
N
73 117.125 M
77.34 117.125 L
S
GR
GS
0.149 GC
2 setlinecap
1 LJ
0.5 LW
N
73 74.313 M
77.34 74.313 L
S
GR
GS
0.149 GC
2 setlinecap
1 LJ
0.5 LW
N
73 31.5 M
77.34 31.5 L
S
GR
GS
[1 0 0 1 69.00001 374] CT
0.149 GC
/Helvetica 10 F
GS
[1 0 0 1 0 0] CT
-18 3.5 moveto 
1 -1 scale
(-2.5) t 
GR
GR
GS
[1 0 0 1 69.00001 331.1875] CT
0.149 GC
/Helvetica 10 F
GS
[1 0 0 1 0 0] CT
-10 3.5 moveto 
1 -1 scale
(-2) t 
GR
GR
GS
[1 0 0 1 69.00001 288.375] CT
0.149 GC
/Helvetica 10 F
GS
[1 0 0 1 0 0] CT
-18 3.5 moveto 
1 -1 scale
(-1.5) t 
GR
GR
GS
[1 0 0 1 69.00001 245.5625] CT
0.149 GC
/Helvetica 10 F
GS
[1 0 0 1 0 0] CT
-10 3.5 moveto 
1 -1 scale
(-1) t 
GR
GR
GS
[1 0 0 1 69.00001 202.75] CT
0.149 GC
/Helvetica 10 F
GS
[1 0 0 1 0 0] CT
-18 3.5 moveto 
1 -1 scale
(-0.5) t 
GR
GR
GS
[1 0 0 1 69.00001 159.9375] CT
0.149 GC
/Helvetica 10 F
GS
[1 0 0 1 0 0] CT
-6 3.5 moveto 
1 -1 scale
(0) t 
GR
GR
GS
[1 0 0 1 69.00001 117.125] CT
0.149 GC
/Helvetica 10 F
GS
[1 0 0 1 0 0] CT
-14 3.5 moveto 
1 -1 scale
(0.5) t 
GR
GR
GS
[1 0 0 1 69.00001 74.3125] CT
0.149 GC
/Helvetica 10 F
GS
[1 0 0 1 0 0] CT
-6 3.5 moveto 
1 -1 scale
(1) t 
GR
GR
GS
[1 0 0 1 69.00001 31.5] CT
0.149 GC
/Helvetica 10 F
GS
[1 0 0 1 0 0] CT
-14 3.5 moveto 
1 -1 scale
(1.5) t 
GR
GR
GS
1 0 0 RC
N
502.571 60.5 M
501.624 56.964 L
499.036 54.376 L
495.5 53.429 L
491.964 54.376 L
489.376 56.964 L
488.429 60.5 L
489.376 64.036 L
491.964 66.624 L
495.5 67.571 L
499.036 66.624 L
501.624 64.036 L
502.571 60.5 L
cp
f
GR
GS
1 0 0 RC
N
465.571 67.5 M
464.624 63.964 L
462.036 61.376 L
458.5 60.429 L
454.964 61.376 L
452.376 63.964 L
451.429 67.5 L
452.376 71.036 L
454.964 73.624 L
458.5 74.571 L
462.036 73.624 L
464.624 71.036 L
465.571 67.5 L
cp
f
GR
GS
1 0 0 RC
N
468.571 48.5 M
467.624 44.964 L
465.036 42.376 L
461.5 41.429 L
457.964 42.376 L
455.376 44.964 L
454.429 48.5 L
455.376 52.036 L
457.964 54.624 L
461.5 55.571 L
465.036 54.624 L
467.624 52.036 L
468.571 48.5 L
cp
f
GR
GS
1 0 0 RC
N
506.571 52.5 M
505.624 48.964 L
503.036 46.376 L
499.5 45.429 L
495.964 46.376 L
493.376 48.964 L
492.429 52.5 L
493.376 56.036 L
495.964 58.624 L
499.5 59.571 L
503.036 58.624 L
505.624 56.036 L
506.571 52.5 L
cp
f
GR
GS
1 0 0 RC
N
451.571 82.5 M
450.624 78.964 L
448.036 76.376 L
444.5 75.429 L
440.964 76.376 L
438.376 78.964 L
437.429 82.5 L
438.376 86.036 L
440.964 88.624 L
444.5 89.571 L
448.036 88.624 L
450.624 86.036 L
451.571 82.5 L
cp
f
GR
GS
1 0 0 RC
N
495.571 50.5 M
494.624 46.964 L
492.036 44.376 L
488.5 43.429 L
484.964 44.376 L
482.376 46.964 L
481.429 50.5 L
482.376 54.036 L
484.964 56.624 L
488.5 57.571 L
492.036 56.624 L
494.624 54.036 L
495.571 50.5 L
cp
f
GR
GS
1 0 0 RC
N
493.571 46.5 M
492.624 42.964 L
490.036 40.376 L
486.5 39.429 L
482.964 40.376 L
480.376 42.964 L
479.429 46.5 L
480.376 50.036 L
482.964 52.624 L
486.5 53.571 L
490.036 52.624 L
492.624 50.036 L
493.571 46.5 L
cp
f
GR
GS
0 1 0 RC
N
96.571 66.5 M
95.624 62.964 L
93.036 60.376 L
89.5 59.429 L
85.964 60.376 L
83.376 62.964 L
82.429 66.5 L
83.376 70.036 L
85.964 72.624 L
89.5 73.571 L
93.036 72.624 L
95.624 70.036 L
96.571 66.5 L
cp
f
GR
GS
0 1 0 RC
N
200.571 77.5 M
199.624 73.964 L
197.036 71.376 L
193.5 70.429 L
189.964 71.376 L
187.376 73.964 L
186.429 77.5 L
187.376 81.036 L
189.964 83.624 L
193.5 84.571 L
197.036 83.624 L
199.624 81.036 L
200.571 77.5 L
cp
f
GR
GS
0 1 0 RC
N
110.571 64.5 M
109.624 60.964 L
107.036 58.376 L
103.5 57.429 L
99.964 58.376 L
97.376 60.964 L
96.429 64.5 L
97.376 68.036 L
99.964 70.624 L
103.5 71.571 L
107.036 70.624 L
109.624 68.036 L
110.571 64.5 L
cp
f
GR
GS
0 1 0 RC
N
103.571 65.5 M
102.624 61.964 L
100.036 59.376 L
96.5 58.429 L
92.964 59.376 L
90.376 61.964 L
89.429 65.5 L
90.376 69.036 L
92.964 71.624 L
96.5 72.571 L
100.036 71.624 L
102.624 69.036 L
103.571 65.5 L
cp
f
GR
GS
0 0 1 RC
N
478.571 123.5 M
477.624 119.964 L
475.036 117.376 L
471.5 116.429 L
467.964 117.376 L
465.376 119.964 L
464.429 123.5 L
465.376 127.036 L
467.964 129.624 L
471.5 130.571 L
475.036 129.624 L
477.624 127.036 L
478.571 123.5 L
cp
f
GR
GS
0 0 1 RC
N
500.571 128.5 M
499.624 124.964 L
497.036 122.376 L
493.5 121.429 L
489.964 122.376 L
487.376 124.964 L
486.429 128.5 L
487.376 132.036 L
489.964 134.624 L
493.5 135.571 L
497.036 134.624 L
499.624 132.036 L
500.571 128.5 L
cp
f
GR
GS
0 0 1 RC
N
473.571 107.5 M
472.624 103.964 L
470.036 101.376 L
466.5 100.429 L
462.964 101.376 L
460.376 103.964 L
459.429 107.5 L
460.376 111.036 L
462.964 113.624 L
466.5 114.571 L
470.036 113.624 L
472.624 111.036 L
473.571 107.5 L
cp
f
GR
GS
0 0 1 RC
N
499.571 122.5 M
498.624 118.964 L
496.036 116.376 L
492.5 115.429 L
488.964 116.376 L
486.376 118.964 L
485.429 122.5 L
486.376 126.036 L
488.964 128.624 L
492.5 129.571 L
496.036 128.624 L
498.624 126.036 L
499.571 122.5 L
cp
f
GR
GS
0 0 1 RC
N
451.571 148.5 M
450.624 144.964 L
448.036 142.376 L
444.5 141.429 L
440.964 142.376 L
438.376 144.964 L
437.429 148.5 L
438.376 152.036 L
440.964 154.624 L
444.5 155.571 L
448.036 154.624 L
450.624 152.036 L
451.571 148.5 L
cp
f
GR
GS
0 0 1 RC
N
476.571 150.5 M
475.624 146.964 L
473.036 144.376 L
469.5 143.429 L
465.964 144.376 L
463.376 146.964 L
462.429 150.5 L
463.376 154.036 L
465.964 156.624 L
469.5 157.571 L
473.036 156.624 L
475.624 154.036 L
476.571 150.5 L
cp
f
GR
GS
1 1 0 RC
N
360.571 335.5 M
359.624 331.964 L
357.036 329.376 L
353.5 328.429 L
349.964 329.376 L
347.376 331.964 L
346.429 335.5 L
347.376 339.036 L
349.964 341.624 L
353.5 342.571 L
357.036 341.624 L
359.624 339.036 L
360.571 335.5 L
cp
f
GR
GS
1 1 0 RC
N
364.571 285.5 M
363.624 281.964 L
361.036 279.376 L
357.5 278.429 L
353.964 279.376 L
351.376 281.964 L
350.429 285.5 L
351.376 289.036 L
353.964 291.624 L
357.5 292.571 L
361.036 291.624 L
363.624 289.036 L
364.571 285.5 L
cp
f
GR
GS
1 1 0 RC
N
332.571 351.5 M
331.624 347.964 L
329.036 345.376 L
325.5 344.429 L
321.964 345.376 L
319.376 347.964 L
318.429 351.5 L
319.376 355.036 L
321.964 357.624 L
325.5 358.571 L
329.036 357.624 L
331.624 355.036 L
332.571 351.5 L
cp
f
GR
GS
1 1 0 RC
N
327.571 348.5 M
326.624 344.964 L
324.036 342.376 L
320.5 341.429 L
316.964 342.376 L
314.376 344.964 L
313.429 348.5 L
314.376 352.036 L
316.964 354.624 L
320.5 355.571 L
324.036 354.624 L
326.624 352.036 L
327.571 348.5 L
cp
f
GR
GS
1 1 0 RC
N
367.571 320.5 M
366.624 316.964 L
364.036 314.376 L
360.5 313.429 L
356.964 314.376 L
354.376 316.964 L
353.429 320.5 L
354.376 324.036 L
356.964 326.624 L
360.5 327.571 L
364.036 326.624 L
366.624 324.036 L
367.571 320.5 L
cp
f
GR
GS
1 1 0 RC
N
327.571 339.5 M
326.624 335.964 L
324.036 333.376 L
320.5 332.429 L
316.964 333.376 L
314.376 335.964 L
313.429 339.5 L
314.376 343.036 L
316.964 345.624 L
320.5 346.571 L
324.036 345.624 L
326.624 343.036 L
327.571 339.5 L
cp
f
GR
GS
1 0 1 RC
N
398.571 161.5 M
397.624 157.964 L
395.036 155.376 L
391.5 154.429 L
387.964 155.376 L
385.376 157.964 L
384.429 161.5 L
385.376 165.036 L
387.964 167.624 L
391.5 168.571 L
395.036 167.624 L
397.624 165.036 L
398.571 161.5 L
cp
f
GR
GS
1 0 1 RC
N
434.571 109.5 M
433.624 105.964 L
431.036 103.376 L
427.5 102.429 L
423.964 103.376 L
421.376 105.964 L
420.429 109.5 L
421.376 113.036 L
423.964 115.624 L
427.5 116.571 L
431.036 115.624 L
433.624 113.036 L
434.571 109.5 L
cp
f
GR
GS
1 0 0 RC
N
503.571 52.5 M
502.624 48.964 L
500.036 46.376 L
496.5 45.429 L
492.964 46.376 L
490.376 48.964 L
489.429 52.5 L
490.376 56.036 L
492.964 58.624 L
496.5 59.571 L
500.036 58.624 L
502.624 56.036 L
503.571 52.5 L
cp
f
GR
GS
1 1 0 RC
N
388.571 322.5 M
387.624 318.964 L
385.036 316.376 L
381.5 315.429 L
377.964 316.376 L
375.376 318.964 L
374.429 322.5 L
375.376 326.036 L
377.964 328.624 L
381.5 329.571 L
385.036 328.624 L
387.624 326.036 L
388.571 322.5 L
cp
f
GR
GS
1 1 0 RC
N
372.571 275.5 M
371.624 271.964 L
369.036 269.376 L
365.5 268.429 L
361.964 269.376 L
359.376 271.964 L
358.429 275.5 L
359.376 279.036 L
361.964 281.624 L
365.5 282.571 L
369.036 281.624 L
371.624 279.036 L
372.571 275.5 L
cp
f
GR
GS
1 1 0 RC
N
341.571 343.5 M
340.624 339.964 L
338.036 337.376 L
334.5 336.429 L
330.964 337.376 L
328.376 339.964 L
327.429 343.5 L
328.376 347.036 L
330.964 349.624 L
334.5 350.571 L
338.036 349.624 L
340.624 347.036 L
341.571 343.5 L
cp
f
GR
GS
1 1 0 RC
N
338.571 352.5 M
337.624 348.964 L
335.036 346.376 L
331.5 345.429 L
327.964 346.376 L
325.376 348.964 L
324.429 352.5 L
325.376 356.036 L
327.964 358.624 L
331.5 359.571 L
335.036 358.624 L
337.624 356.036 L
338.571 352.5 L
cp
f
GR
GS
1 1 0 RC
N
314.571 237.5 M
313.624 233.964 L
311.036 231.376 L
307.5 230.429 L
303.964 231.376 L
301.376 233.964 L
300.429 237.5 L
301.376 241.036 L
303.964 243.624 L
307.5 244.571 L
311.036 243.624 L
313.624 241.036 L
314.571 237.5 L
cp
f
GR
GS
1 1 0 RC
N
318.571 246.5 M
317.624 242.964 L
315.036 240.376 L
311.5 239.429 L
307.964 240.376 L
305.376 242.964 L
304.429 246.5 L
305.376 250.036 L
307.964 252.624 L
311.5 253.571 L
315.036 252.624 L
317.624 250.036 L
318.571 246.5 L
cp
f
GR
GS
1 1 0 RC
N
348.571 337.5 M
347.624 333.964 L
345.036 331.376 L
341.5 330.429 L
337.964 331.376 L
335.376 333.964 L
334.429 337.5 L
335.376 341.036 L
337.964 343.624 L
341.5 344.571 L
345.036 343.624 L
347.624 341.036 L
348.571 337.5 L
cp
f
GR
GS
0 0 1 RC
N
458.571 193.5 M
457.624 189.964 L
455.036 187.376 L
451.5 186.429 L
447.964 187.376 L
445.376 189.964 L
444.429 193.5 L
445.376 197.036 L
447.964 199.624 L
451.5 200.571 L
455.036 199.624 L
457.624 197.036 L
458.571 193.5 L
cp
f
GR
GS
1 1 0 RC
N
409.571 271.5 M
408.624 267.964 L
406.036 265.376 L
402.5 264.429 L
398.964 265.376 L
396.376 267.964 L
395.429 271.5 L
396.376 275.036 L
398.964 277.624 L
402.5 278.571 L
406.036 277.624 L
408.624 275.036 L
409.571 271.5 L
cp
f
GR
GS
1 1 0 RC
N
346.571 330.5 M
345.624 326.964 L
343.036 324.376 L
339.5 323.429 L
335.964 324.376 L
333.376 326.964 L
332.429 330.5 L
333.376 334.036 L
335.964 336.624 L
339.5 337.571 L
343.036 336.624 L
345.624 334.036 L
346.571 330.5 L
cp
f
GR
GS
0 0 1 RC
N
472.571 117.5 M
471.624 113.964 L
469.036 111.376 L
465.5 110.429 L
461.964 111.376 L
459.376 113.964 L
458.429 117.5 L
459.376 121.036 L
461.964 123.624 L
465.5 124.571 L
469.036 123.624 L
471.624 121.036 L
472.571 117.5 L
cp
f
GR
GS
1 0 1 RC
N
375.571 101.5 M
374.624 97.964 L
372.036 95.376 L
368.5 94.429 L
364.964 95.376 L
362.376 97.964 L
361.429 101.5 L
362.376 105.036 L
364.964 107.624 L
368.5 108.571 L
372.036 107.624 L
374.624 105.036 L
375.571 101.5 L
cp
f
GR
GS
1 0 0 RC
N
448.571 63.5 M
447.624 59.964 L
445.036 57.376 L
441.5 56.429 L
437.964 57.376 L
435.376 59.964 L
434.429 63.5 L
435.376 67.036 L
437.964 69.624 L
441.5 70.571 L
445.036 69.624 L
447.624 67.036 L
448.571 63.5 L
cp
f
GR
GS
1 1 0 RC
N
447.571 220.5 M
446.624 216.964 L
444.036 214.376 L
440.5 213.429 L
436.964 214.376 L
434.376 216.964 L
433.429 220.5 L
434.376 224.036 L
436.964 226.624 L
440.5 227.571 L
444.036 226.624 L
446.624 224.036 L
447.571 220.5 L
cp
f
GR
GS
1 1 0 RC
N
358.571 314.5 M
357.624 310.964 L
355.036 308.376 L
351.5 307.429 L
347.964 308.376 L
345.376 310.964 L
344.429 314.5 L
345.376 318.036 L
347.964 320.624 L
351.5 321.571 L
355.036 320.624 L
357.624 318.036 L
358.571 314.5 L
cp
f
GR
GS
1 1 0 RC
N
318.571 331.5 M
317.624 327.964 L
315.036 325.376 L
311.5 324.429 L
307.964 325.376 L
305.376 327.964 L
304.429 331.5 L
305.376 335.036 L
307.964 337.624 L
311.5 338.571 L
315.036 337.624 L
317.624 335.036 L
318.571 331.5 L
cp
f
GR
GS
1 1 0 RC
N
370.571 252.5 M
369.624 248.964 L
367.036 246.376 L
363.5 245.429 L
359.964 246.376 L
357.376 248.964 L
356.429 252.5 L
357.376 256.036 L
359.964 258.624 L
363.5 259.571 L
367.036 258.624 L
369.624 256.036 L
370.571 252.5 L
cp
f
GR
GS
0 0 1 RC
N
505.571 110.5 M
504.624 106.964 L
502.036 104.376 L
498.5 103.429 L
494.964 104.376 L
492.376 106.964 L
491.429 110.5 L
492.376 114.036 L
494.964 116.624 L
498.5 117.571 L
502.036 116.624 L
504.624 114.036 L
505.571 110.5 L
cp
f
GR
GS
0 0 1 RC
N
465.571 123.5 M
464.624 119.964 L
462.036 117.376 L
458.5 116.429 L
454.964 117.376 L
452.376 119.964 L
451.429 123.5 L
452.376 127.036 L
454.964 129.624 L
458.5 130.571 L
462.036 129.624 L
464.624 127.036 L
465.571 123.5 L
cp
f
GR
GS
0 0 1 RC
N
479.571 122.5 M
478.624 118.964 L
476.036 116.376 L
472.5 115.429 L
468.964 116.376 L
466.376 118.964 L
465.429 122.5 L
466.376 126.036 L
468.964 128.624 L
472.5 129.571 L
476.036 128.624 L
478.624 126.036 L
479.571 122.5 L
cp
f
GR
GS
0 0 1 RC
N
492.571 130.5 M
491.624 126.964 L
489.036 124.376 L
485.5 123.429 L
481.964 124.376 L
479.376 126.964 L
478.429 130.5 L
479.376 134.036 L
481.964 136.624 L
485.5 137.571 L
489.036 136.624 L
491.624 134.036 L
492.571 130.5 L
cp
f
GR
GS
0 0 1 RC
N
510.571 99.5 M
509.624 95.964 L
507.036 93.376 L
503.5 92.429 L
499.964 93.376 L
497.376 95.964 L
496.429 99.5 L
497.376 103.036 L
499.964 105.624 L
503.5 106.571 L
507.036 105.624 L
509.624 103.036 L
510.571 99.5 L
cp
f
GR
GS
0 1 0 RC
N
118.571 68.5 M
117.624 64.964 L
115.036 62.376 L
111.5 61.429 L
107.964 62.376 L
105.376 64.964 L
104.429 68.5 L
105.376 72.036 L
107.964 74.624 L
111.5 75.571 L
115.036 74.624 L
117.624 72.036 L
118.571 68.5 L
cp
f
GR
GS
0 1 0 RC
N
103.571 65.5 M
102.624 61.964 L
100.036 59.376 L
96.5 58.429 L
92.964 59.376 L
90.376 61.964 L
89.429 65.5 L
90.376 69.036 L
92.964 71.624 L
96.5 72.571 L
100.036 71.624 L
102.624 69.036 L
103.571 65.5 L
cp
f
GR
GS
0 1 0 RC
N
131.571 86.5 M
130.624 82.964 L
128.036 80.376 L
124.5 79.429 L
120.964 80.376 L
118.376 82.964 L
117.429 86.5 L
118.376 90.036 L
120.964 92.624 L
124.5 93.571 L
128.036 92.624 L
130.624 90.036 L
131.571 86.5 L
cp
f
GR
GS
0 1 0 RC
N
131.571 85.5 M
130.624 81.964 L
128.036 79.376 L
124.5 78.429 L
120.964 79.376 L
118.376 81.964 L
117.429 85.5 L
118.376 89.036 L
120.964 91.624 L
124.5 92.571 L
128.036 91.624 L
130.624 89.036 L
131.571 85.5 L
cp
f
GR
GS
0 1 0 RC
N
100.571 66.5 M
99.624 62.964 L
97.036 60.376 L
93.5 59.429 L
89.964 60.376 L
87.376 62.964 L
86.429 66.5 L
87.376 70.036 L
89.964 72.624 L
93.5 73.571 L
97.036 72.624 L
99.624 70.036 L
100.571 66.5 L
cp
f
GR
GS
0 1 0 RC
N
91.571 65.5 M
90.624 61.964 L
88.036 59.376 L
84.5 58.429 L
80.964 59.376 L
78.376 61.964 L
77.429 65.5 L
78.376 69.036 L
80.964 71.624 L
84.5 72.571 L
88.036 71.624 L
90.624 69.036 L
91.571 65.5 L
cp
f
GR
GS
0 1 0 RC
N
97.571 64.5 M
96.624 60.964 L
94.036 58.376 L
90.5 57.429 L
86.964 58.376 L
84.376 60.964 L
83.429 64.5 L
84.376 68.036 L
86.964 70.624 L
90.5 71.571 L
94.036 70.624 L
96.624 68.036 L
97.571 64.5 L
cp
f
GR
GS
1 0 0 RC
N
481.571 42.5 M
480.624 38.964 L
478.036 36.376 L
474.5 35.429 L
470.964 36.376 L
468.376 38.964 L
467.429 42.5 L
468.376 46.036 L
470.964 48.624 L
474.5 49.571 L
478.036 48.624 L
480.624 46.036 L
481.571 42.5 L
cp
f
GR
GS
1 0 0 RC
N
497.571 53.5 M
496.624 49.964 L
494.036 47.376 L
490.5 46.429 L
486.964 47.376 L
484.376 49.964 L
483.429 53.5 L
484.376 57.036 L
486.964 59.624 L
490.5 60.571 L
494.036 59.624 L
496.624 57.036 L
497.571 53.5 L
cp
f
GR
GS
1 0 0 RC
N
465.571 57.5 M
464.624 53.964 L
462.036 51.376 L
458.5 50.429 L
454.964 51.376 L
452.376 53.964 L
451.429 57.5 L
452.376 61.036 L
454.964 63.624 L
458.5 64.571 L
462.036 63.624 L
464.624 61.036 L
465.571 57.5 L
cp
f
GR
GS
1 0 0 RC
N
498.571 109.5 M
497.624 105.964 L
495.036 103.376 L
491.5 102.429 L
487.964 103.376 L
485.376 105.964 L
484.429 109.5 L
485.376 113.036 L
487.964 115.624 L
491.5 116.571 L
495.036 115.624 L
497.624 113.036 L
498.571 109.5 L
cp
f
GR
%%Trailer
%%Pages: 1
%%EOF
